"pdla_id","pers_id","depe_id","tabl_idsitlaboral","tabl_cargoestructural","tabl_profesion","pdla_cargofuncional","pdla_resolingresoestado","pdla_fecharesolingreso","pdla_fechaingreso","rela_id","repe_id","cate_id","cacl_id","afp_id","pdla_cus","pdla_afpafiliacion","pdla_fdesafiliacion","pdla_resdesafiliacion","tabl_idtipopension","pdla_cargodecese","tabl_parentesco","pers_persid","pdla_fecharegistro","pdla_actualusua","pdla_actualfecha","usua_id","pdla_estado"
1,2,15,4,61,NULL,"JEFE DE UNIDAD",NULL,NULL,NULL,NULL,NULL,NULL,NULL,NULL,NULL,NULL,NULL,NULL,NULL,NULL,NULL,NULL,"2010-09-20 16:58:17",1,"2018-05-16 08:44:08",1,1
2,3,14,1,61,NULL,"JEFE DE UNIDAD",NULL,NULL,NULL,NULL,NULL,NULL,NULL,NULL,NULL,NULL,NULL,NULL,NULL,NULL,NULL,NULL,"2013-05-14 08:33:38",1,"2020-02-04 08:00:37",1,9
3,4,3,1,114,NULL,"SECRETARIA",NULL,NULL,NULL,NULL,NULL,NULL,NULL,NULL,NULL,NULL,NULL,NULL,NULL,NULL,NULL,NULL,"2013-05-14 08:36:12",1,"2018-10-01 10:06:10",1,1
4,5,18,11,112,NULL,"ABOGADO",NULL,NULL,NULL,NULL,NULL,NULL,NULL,NULL,NULL,NULL,NULL,NULL,NULL,NULL,NULL,NULL,"2013-05-14 08:40:05",1,"2017-07-20 08:50:00",1,9
5,6,33,1,117,NULL,"NUTRICIONISTA DE LA SBCH",NULL,NULL,NULL,NULL,NULL,NULL,NULL,NULL,NULL,NULL,NULL,NULL,NULL,NULL,NULL,NULL,"2013-05-14 08:43:57",1,"2013-05-14 08:43:57",1,1
6,7,12,4,115,NULL,"APOYO ADMINISTRATIVO",NULL,NULL,NULL,NULL,NULL,NULL,NULL,NULL,NULL,NULL,NULL,NULL,NULL,NULL,NULL,NULL,"2013-05-14 08:46:47",1,"2019-08-12 08:56:50",1,1
7,8,3,4,115,NULL,"APOYO ADMINISTRATIVO",NULL,NULL,NULL,NULL,NULL,NULL,NULL,NULL,NULL,NULL,NULL,NULL,NULL,NULL,NULL,NULL,"2013-05-14 08:49:56",1,"2020-07-15 10:56:26",1,1
8,9,14,11,61,NULL,"JEFE DE UNIDAD",NULL,NULL,NULL,NULL,NULL,NULL,NULL,NULL,NULL,NULL,NULL,NULL,NULL,NULL,NULL,NULL,"2013-05-14 08:53:57",1,"2020-03-02 10:43:04",1,1
9,10,8,11,112,NULL,"ABOGADO",NULL,NULL,NULL,NULL,NULL,NULL,NULL,NULL,NULL,NULL,NULL,NULL,NULL,NULL,NULL,NULL,"2013-05-14 08:56:12",1,"2020-02-04 08:00:28",1,9
10,11,116,15,115,NULL,"APOYO ADMINISTRATIVO",NULL,NULL,NULL,NULL,NULL,NULL,NULL,NULL,NULL,NULL,NULL,NULL,NULL,NULL,NULL,NULL,"2013-05-14 09:00:08",1,"2020-10-26 13:29:36",1,1
11,12,18,4,119,NULL,"RESPONSABLE DE OFICINA",NULL,NULL,NULL,NULL,NULL,NULL,NULL,NULL,NULL,NULL,NULL,NULL,NULL,NULL,NULL,NULL,"2013-05-14 09:15:01",1,"2018-06-04 12:51:23",1,9
12,13,35,1,62,NULL,"JEFE DE DIVISION",NULL,"2017-09-30",NULL,NULL,NULL,NULL,NULL,NULL,NULL,NULL,NULL,NULL,NULL,NULL,NULL,NULL,"2013-05-14 09:17:59",1,"2017-10-03 10:30:35",1,9
13,14,13,4,115,NULL,"APOYO ADMINISTRATIVO",NULL,NULL,NULL,NULL,NULL,NULL,NULL,NULL,NULL,NULL,NULL,NULL,NULL,NULL,NULL,NULL,"2013-05-14 09:19:22",1,"2020-09-17 08:24:09",1,1
14,15,13,1,115,NULL,"APOYO ADMINISTRATIVO",NULL,NULL,NULL,NULL,NULL,NULL,NULL,NULL,NULL,NULL,NULL,NULL,NULL,NULL,NULL,NULL,"2013-05-14 09:20:59",1,"2013-05-14 09:20:58",1,1
15,16,12,11,115,NULL,"APOYO ADMINISTRATIVO",NULL,NULL,NULL,NULL,NULL,NULL,NULL,NULL,NULL,NULL,NULL,NULL,NULL,NULL,NULL,NULL,"2013-05-14 09:22:38",1,"2019-07-08 08:17:05",1,1
16,17,32,15,115,NULL,"APOYO ADMINISTRATIVO",NULL,NULL,NULL,NULL,NULL,NULL,NULL,NULL,NULL,NULL,NULL,NULL,NULL,NULL,NULL,NULL,"2013-05-14 09:25:48",1,"2020-07-30 09:06:44",1,1
17,18,22,4,61,NULL,"JEFE DE UNIDAD",NULL,NULL,NULL,NULL,NULL,NULL,NULL,NULL,NULL,NULL,NULL,NULL,NULL,NULL,NULL,NULL,"2013-05-14 09:27:52",1,"2018-05-24 12:59:23",1,1
18,19,109,1,58,NULL,"GERENTE DE INGENIERIA",NULL,NULL,NULL,NULL,NULL,NULL,NULL,NULL,NULL,NULL,NULL,NULL,NULL,NULL,NULL,NULL,"2013-05-14 09:29:45",1,"2020-09-17 13:39:24",1,1
19,20,18,1,114,NULL,"SECRETARIA",NULL,NULL,NULL,NULL,NULL,NULL,NULL,NULL,NULL,NULL,NULL,NULL,NULL,NULL,NULL,NULL,"2013-05-14 09:31:23",1,"2019-01-15 07:38:23",1,1
20,21,10,1,120,NULL,"ADMINISTRADOR",NULL,NULL,NULL,NULL,NULL,NULL,NULL,NULL,NULL,NULL,NULL,NULL,NULL,NULL,NULL,NULL,"2013-05-14 09:32:53",1,"2020-10-05 11:42:41",1,1
21,22,6,4,119,NULL,"JEFE DE OFICINA",NULL,NULL,NULL,NULL,NULL,NULL,NULL,NULL,NULL,NULL,NULL,NULL,NULL,NULL,NULL,NULL,"2013-05-14 09:35:12",1,"2017-01-10 14:37:34",1,1
22,23,45,1,60,NULL,"SUB GERENTE",NULL,NULL,NULL,NULL,NULL,NULL,NULL,NULL,NULL,NULL,NULL,NULL,NULL,NULL,NULL,NULL,"2013-05-14 09:37:24",1,"2020-01-22 14:15:22",1,1
23,24,10,15,115,NULL,"APOYO ADMINISTRATIVO",NULL,NULL,NULL,NULL,NULL,NULL,NULL,NULL,NULL,NULL,NULL,NULL,NULL,NULL,NULL,NULL,"2013-05-14 09:40:04",1,"2018-03-28 14:05:15",1,9
24,25,13,15,115,NULL,"APOYO ADMINISTRATIVO",NULL,NULL,NULL,NULL,NULL,NULL,NULL,NULL,NULL,NULL,NULL,NULL,NULL,NULL,NULL,NULL,"2013-05-14 09:42:04",1,"2017-08-21 12:18:23",1,9
25,26,6,4,115,NULL,"APOYO ADMINISTRATIVO",NULL,NULL,NULL,NULL,NULL,NULL,NULL,NULL,NULL,NULL,NULL,NULL,NULL,NULL,NULL,NULL,"2013-05-14 09:43:46",1,"2016-11-09 14:33:25",1,1
26,27,28,15,113,NULL,"ENCARGADO CENTRO MEDICO",NULL,NULL,NULL,NULL,NULL,NULL,NULL,NULL,NULL,NULL,NULL,NULL,NULL,NULL,NULL,NULL,"2013-05-14 09:51:14",1,"2018-02-08 08:17:15",1,9
28,29,12,1,115,NULL,"APOYO ADMINISTRATIVO",NULL,"2017-10-02",NULL,NULL,NULL,NULL,NULL,NULL,NULL,NULL,NULL,NULL,NULL,NULL,NULL,NULL,"2013-05-14 11:13:06",1,"2020-09-30 09:20:40",1,1
29,30,18,11,1903,NULL,"JEFE DE DEPARTAMENTO",NULL,NULL,NULL,NULL,NULL,NULL,NULL,NULL,NULL,NULL,NULL,NULL,NULL,NULL,NULL,NULL,"2013-05-14 11:14:33",1,"2019-01-21 11:27:19",1,9
30,31,14,1,115,NULL,"ENCARGADA DE CONTROL PATRIMONIAL",NULL,NULL,NULL,NULL,NULL,NULL,NULL,NULL,NULL,NULL,NULL,NULL,NULL,NULL,NULL,NULL,"2013-05-14 11:16:13",1,"2020-05-07 11:07:58",1,9
31,32,28,15,115,NULL,"RECAUDADOR",NULL,NULL,NULL,NULL,NULL,NULL,NULL,NULL,NULL,NULL,NULL,NULL,NULL,NULL,NULL,NULL,"2013-05-14 11:17:45",1,"2016-10-03 08:15:45",1,1
32,33,8,11,998,NULL,"NO IDENTIFICADO",NULL,NULL,NULL,NULL,NULL,NULL,NULL,NULL,NULL,NULL,NULL,NULL,NULL,NULL,NULL,NULL,"2013-05-14 11:20:11",1,"2015-11-03 08:29:15",1,9
33,34,113,15,114,NULL,"SECRETARIA",NULL,NULL,NULL,NULL,NULL,NULL,NULL,NULL,NULL,NULL,NULL,NULL,NULL,NULL,NULL,NULL,"2013-05-14 11:24:39",1,"2018-05-30 11:14:52",1,1
34,35,8,11,112,NULL,"ABOGADO",NULL,NULL,NULL,NULL,NULL,NULL,NULL,NULL,NULL,NULL,NULL,NULL,NULL,NULL,NULL,NULL,"2013-05-14 11:26:57",1,"2015-11-03 08:27:17",1,9
36,37,3,15,114,NULL,"SECRETARIA",NULL,NULL,NULL,NULL,NULL,NULL,NULL,NULL,NULL,NULL,NULL,NULL,NULL,NULL,NULL,NULL,"2013-05-14 11:34:53",1,"2015-08-20 10:31:28",1,9
37,38,31,11,114,NULL,"SECRETARIA",NULL,NULL,NULL,NULL,NULL,NULL,NULL,NULL,NULL,NULL,NULL,NULL,NULL,NULL,NULL,NULL,"2013-05-14 11:38:17",1,"2019-10-14 07:39:53",1,1
38,39,8,15,112,NULL,"ABOGADO",NULL,NULL,NULL,NULL,NULL,NULL,NULL,NULL,NULL,NULL,NULL,NULL,NULL,NULL,NULL,NULL,"2013-05-14 11:41:21",1,"2015-11-03 08:29:22",1,9
39,40,39,2,998,NULL,"GERENTE",NULL,NULL,NULL,NULL,NULL,NULL,NULL,NULL,NULL,NULL,NULL,NULL,NULL,NULL,NULL,NULL,"2013-05-14 11:43:32",1,"2015-09-01 16:37:02",1,9
40,41,5,1,114,NULL,"SECRETARIA",NULL,NULL,NULL,NULL,NULL,NULL,NULL,NULL,NULL,NULL,NULL,NULL,NULL,NULL,NULL,NULL,"2013-05-14 11:46:06",1,"2013-05-16 11:03:52",1,1
41,42,28,11,998,NULL,"JEFE OFICINA",NULL,NULL,NULL,NULL,NULL,NULL,NULL,NULL,NULL,NULL,NULL,NULL,NULL,NULL,NULL,NULL,"2013-05-14 11:48:11",1,"2015-11-03 08:31:59",1,9
42,43,28,15,115,NULL,"ENFERMERA",NULL,NULL,NULL,NULL,NULL,NULL,NULL,NULL,NULL,NULL,NULL,NULL,NULL,NULL,NULL,NULL,"2013-05-14 11:52:01",1,"2015-11-03 08:33:51",1,9
43,44,12,15,115,NULL,"APOYO ADMINISTRATIVO",NULL,NULL,NULL,NULL,NULL,NULL,NULL,NULL,NULL,NULL,NULL,NULL,NULL,NULL,NULL,NULL,"2013-05-14 11:54:11",1,"2016-04-26 08:35:17",1,9
44,45,18,11,118,NULL,"RECAUDADOR",NULL,NULL,NULL,NULL,NULL,NULL,NULL,NULL,NULL,NULL,NULL,NULL,NULL,NULL,NULL,NULL,"2013-05-14 12:00:56",1,"2020-10-16 10:03:21",1,1
45,46,8,1,112,NULL,"ABOGADO",NULL,NULL,NULL,NULL,NULL,NULL,NULL,NULL,NULL,NULL,NULL,NULL,NULL,NULL,NULL,NULL,"2013-05-14 12:21:50",1,"2020-07-16 09:01:48",1,1
47,48,28,15,115,NULL,"ADMINISTRATIVO BOTICA",NULL,NULL,NULL,NULL,NULL,NULL,NULL,NULL,NULL,NULL,NULL,NULL,NULL,NULL,NULL,NULL,"2013-05-14 15:23:02",1,"2013-05-16 12:44:37",1,1
48,49,11,11,115,NULL,"APOYO ADMNISTRATIVO",NULL,NULL,NULL,NULL,NULL,NULL,NULL,NULL,NULL,NULL,NULL,NULL,NULL,NULL,NULL,NULL,"2013-05-14 15:29:30",1,"2018-02-07 14:18:04",1,9
49,50,113,1,115,NULL,"APOYO ADMINISTRATIVO",NULL,NULL,NULL,NULL,NULL,NULL,NULL,NULL,NULL,NULL,NULL,NULL,NULL,NULL,NULL,NULL,"2013-05-14 15:32:39",1,"2018-07-25 08:01:11",1,9
50,51,36,1,119,NULL,"JEFE DE ARCHIVO",NULL,NULL,NULL,NULL,NULL,NULL,NULL,NULL,NULL,NULL,NULL,NULL,NULL,NULL,NULL,NULL,"2013-05-17 11:56:36",1,"2013-05-17 11:56:36",1,1
51,6,43,1,156,NULL,"COORDINADORA DE CASA REFUGIO",NULL,NULL,NULL,NULL,NULL,NULL,NULL,NULL,NULL,NULL,NULL,NULL,NULL,NULL,NULL,NULL,"2013-05-17 15:15:40",1,"2020-03-13 07:50:53",1,1
52,52,28,15,115,NULL,"ASISTENTE",NULL,NULL,NULL,NULL,NULL,NULL,NULL,NULL,NULL,NULL,NULL,NULL,NULL,NULL,NULL,NULL,"2013-05-20 08:47:05",1,"2015-11-03 08:30:23",1,9
53,53,12,1,61,NULL,"JEFE UNIDAD",NULL,NULL,NULL,NULL,NULL,NULL,NULL,NULL,NULL,NULL,NULL,NULL,NULL,NULL,NULL,NULL,"2013-05-20 16:55:29",1,"2018-09-17 11:09:57",1,1
54,54,32,4,115,NULL,"APOYO ADMINISTRATIVO",NULL,"2014-03-10",NULL,NULL,NULL,NULL,NULL,NULL,NULL,NULL,NULL,NULL,NULL,NULL,NULL,NULL,"2013-05-20 17:01:16",1,"2018-03-02 11:48:47",1,9
55,19,39,1,998,NULL,"PRESIDENTE DEL COMITE",NULL,NULL,NULL,NULL,NULL,NULL,NULL,NULL,NULL,NULL,NULL,NULL,NULL,NULL,NULL,NULL,"2013-05-21 10:38:31",1,"2018-05-16 08:51:34",1,9
56,55,11,1,61,NULL,"JEFE DE UNIDAD",NULL,NULL,NULL,NULL,NULL,NULL,NULL,NULL,NULL,NULL,NULL,NULL,NULL,NULL,NULL,NULL,"2013-05-22 12:41:26",1,"2015-01-06 12:24:09",1,1
57,56,18,15,114,NULL,"SECRETARIA",NULL,NULL,NULL,NULL,NULL,NULL,NULL,NULL,NULL,NULL,NULL,NULL,NULL,NULL,NULL,NULL,"2013-05-22 16:13:40",1,"2018-12-26 13:59:27",1,1
58,57,109,4,115,NULL,"APOYO ADMINISTRATIVO",NULL,NULL,NULL,NULL,NULL,NULL,NULL,NULL,NULL,NULL,NULL,NULL,NULL,NULL,NULL,NULL,"2013-05-24 11:50:19",1,"2020-09-14 10:44:56",1,1
59,58,32,15,115,NULL,"APOYO ADMINISTRATIVO",NULL,NULL,NULL,NULL,NULL,NULL,NULL,NULL,NULL,NULL,NULL,NULL,NULL,NULL,NULL,NULL,"2013-05-30 08:22:25",1,"2018-03-02 11:45:34",1,9
60,59,3,15,114,NULL,"SECRETARIA",NULL,NULL,NULL,NULL,NULL,NULL,NULL,NULL,NULL,NULL,NULL,NULL,NULL,NULL,NULL,NULL,"2013-06-03 10:27:01",1,"2015-11-03 08:30:04",1,9
61,60,18,15,115,NULL,"APOYO ADMINISTRATIVO",NULL,NULL,NULL,NULL,NULL,NULL,NULL,NULL,NULL,NULL,NULL,NULL,NULL,NULL,NULL,NULL,"2013-06-07 16:25:11",1,"2015-11-03 08:34:23",1,9
62,61,3,15,114,NULL,"SECRETARIA",NULL,NULL,NULL,NULL,NULL,NULL,NULL,NULL,NULL,NULL,NULL,NULL,NULL,NULL,NULL,NULL,"2013-06-10 09:20:03",1,"2016-07-27 07:49:19",1,9
63,63,11,4,115,NULL,"APOYO ADMINISTRATIVO",NULL,NULL,NULL,NULL,NULL,NULL,NULL,NULL,NULL,NULL,NULL,NULL,NULL,NULL,NULL,NULL,"2013-06-11 11:23:01",1,"2018-07-05 13:16:32",1,1
64,64,14,4,115,NULL,"APOYO ADMINISTRATIVO",NULL,NULL,NULL,NULL,NULL,NULL,NULL,NULL,NULL,NULL,NULL,NULL,NULL,NULL,NULL,NULL,"2013-06-13 08:20:21",1,"2015-09-07 08:57:10",1,1
65,59,31,15,115,NULL,"APOYO ADMINISTRATIVO",NULL,NULL,NULL,NULL,NULL,NULL,NULL,NULL,NULL,NULL,NULL,NULL,NULL,NULL,NULL,NULL,"2013-06-24 09:29:06",1,"2015-11-03 08:30:14",1,9
66,65,40,5,1904,NULL,"DIRECTORA IEP. VICENTE DE LA VEGA",NULL,NULL,NULL,NULL,NULL,NULL,NULL,NULL,NULL,NULL,NULL,NULL,NULL,NULL,NULL,NULL,"2013-06-24 10:15:19",1,"2019-01-03 11:09:41",1,1
67,66,31,11,1903,NULL,"JEFE DE DEPARTAMENTO",NULL,NULL,NULL,NULL,NULL,NULL,NULL,NULL,NULL,NULL,NULL,NULL,NULL,NULL,NULL,NULL,"2013-06-24 10:23:00",1,"2019-07-11 09:51:06",1,1
68,25,12,15,115,NULL,"OPERADOR",NULL,NULL,NULL,NULL,NULL,NULL,NULL,NULL,NULL,NULL,NULL,NULL,NULL,NULL,NULL,NULL,"2013-07-03 09:03:35",1,"2015-05-05 15:22:17",1,9
69,67,19,4,115,NULL,"APOYO ADMINISTRATIVO",NULL,NULL,NULL,NULL,NULL,NULL,NULL,NULL,NULL,NULL,NULL,NULL,NULL,NULL,NULL,NULL,"2013-07-04 14:31:56",1,"2017-01-18 09:09:20",1,1
70,68,31,15,115,NULL,"APOYO ADMINISTRATIVO",NULL,NULL,NULL,NULL,NULL,NULL,NULL,NULL,NULL,NULL,NULL,NULL,NULL,NULL,NULL,NULL,"2013-07-09 10:37:57",1,"2019-09-10 09:49:00",1,1
71,69,13,15,115,NULL,"APOYO ADMINISTRATIVO",NULL,NULL,NULL,NULL,NULL,NULL,NULL,NULL,NULL,NULL,NULL,NULL,NULL,NULL,NULL,NULL,"2013-07-30 15:10:21",1,"2020-07-30 13:49:10",1,1
72,70,9,15,115,NULL,"APOYO ADMINISTRATIVO",NULL,NULL,NULL,NULL,NULL,NULL,NULL,NULL,NULL,NULL,NULL,NULL,NULL,NULL,NULL,NULL,"2013-08-12 09:13:24",1,"2018-10-12 11:10:33",1,1
73,71,25,11,119,NULL,"JEFE DE ALMACEN",NULL,NULL,NULL,NULL,NULL,NULL,NULL,NULL,NULL,NULL,NULL,NULL,NULL,NULL,NULL,NULL,"2013-09-03 18:49:51",1,"2015-11-03 08:27:45",1,9
75,72,14,15,998,NULL,"SERVICIOS",NULL,NULL,NULL,NULL,NULL,NULL,NULL,NULL,NULL,NULL,NULL,NULL,NULL,NULL,NULL,NULL,"2013-09-11 15:42:36",1,"2013-09-11 15:42:35",1,1
78,73,6,15,115,NULL,"APOYO ADMINISTRATIVO",NULL,NULL,NULL,NULL,NULL,NULL,NULL,NULL,NULL,NULL,NULL,NULL,NULL,NULL,NULL,NULL,"2013-09-12 12:40:55",1,"2017-12-29 09:22:43",1,9
81,74,14,1,115,NULL,"CHOFER",NULL,NULL,NULL,NULL,NULL,NULL,NULL,NULL,NULL,NULL,NULL,NULL,NULL,NULL,NULL,NULL,"2013-09-25 16:41:39",1,"2016-08-15 08:36:40",1,9
83,75,28,4,115,NULL,"APOYO ADMINISTRATIVO",NULL,NULL,NULL,NULL,NULL,NULL,NULL,NULL,NULL,NULL,NULL,NULL,NULL,NULL,NULL,NULL,"2013-10-07 10:37:00",1,"2019-08-20 14:11:49",1,1
84,76,18,11,115,NULL,"APOYO ADMINISTRATIVO",NULL,NULL,NULL,NULL,NULL,NULL,NULL,NULL,NULL,NULL,NULL,NULL,NULL,NULL,NULL,NULL,"2013-10-07 16:01:53",1,"2013-10-07 16:01:52",1,1
85,77,28,15,115,NULL,"ASISTENTE ADMINISTRATIVO",NULL,"2013-11-05",NULL,NULL,NULL,NULL,NULL,NULL,NULL,NULL,NULL,NULL,NULL,NULL,NULL,NULL,"2013-11-05 09:11:22",1,"2015-11-03 08:29:47",1,9
87,78,10,1,120,NULL,"ADMINISTRADOR",NULL,NULL,NULL,NULL,NULL,NULL,NULL,NULL,NULL,NULL,NULL,NULL,NULL,NULL,NULL,NULL,"2013-11-11 08:38:42",1,"2015-11-03 08:35:11",1,9
88,79,18,11,115,NULL,"OPERADOR SERFIN",NULL,NULL,NULL,NULL,NULL,NULL,NULL,NULL,NULL,NULL,NULL,NULL,NULL,NULL,NULL,NULL,"2013-11-15 15:18:17",1,"2013-11-15 15:18:17",1,1
89,31,41,1,156,NULL,"COORDINADORA",NULL,NULL,NULL,NULL,NULL,NULL,NULL,NULL,NULL,NULL,NULL,NULL,NULL,NULL,NULL,NULL,"2013-12-12 15:44:13",1,"2020-05-27 11:30:41",1,9
90,81,32,15,115,NULL,"APOYO ADMINISTRATIVO",NULL,"2013-12-31",NULL,NULL,NULL,NULL,NULL,NULL,NULL,NULL,NULL,NULL,NULL,NULL,NULL,NULL,"2013-12-30 15:23:53",1,"2020-02-03 14:40:13",1,1
91,83,8,15,115,NULL,"ASISTENTE LEGAL",NULL,NULL,NULL,NULL,NULL,NULL,NULL,NULL,NULL,NULL,NULL,NULL,NULL,NULL,NULL,NULL,"2014-01-15 12:33:56",1,"2015-11-03 08:35:18",1,9
92,35,44,11,113,NULL,"ENCARGADO DE COMITE",NULL,NULL,NULL,NULL,NULL,NULL,NULL,NULL,NULL,NULL,NULL,NULL,NULL,NULL,NULL,NULL,"2014-01-24 08:18:56",1,"2015-11-03 08:27:13",1,9
93,84,28,4,115,NULL,"APOYO ADMINISTRATIVO",NULL,NULL,NULL,NULL,NULL,NULL,NULL,NULL,NULL,NULL,NULL,NULL,NULL,NULL,NULL,NULL,"2014-01-30 15:45:31",1,"2017-08-29 13:18:34",1,9
94,85,8,15,119,NULL,"JEFE OFICINA",NULL,NULL,NULL,NULL,NULL,NULL,NULL,NULL,NULL,NULL,NULL,NULL,NULL,NULL,NULL,NULL,"2014-02-10 08:57:12",1,"2015-11-03 08:34:35",1,9
95,87,11,15,115,NULL,"APOYO ADMINISTRATIVO",NULL,NULL,NULL,NULL,NULL,NULL,NULL,NULL,NULL,NULL,NULL,NULL,NULL,NULL,NULL,NULL,"2014-02-10 16:50:04",1,"2015-11-03 08:34:09",1,9
96,86,110,15,154,NULL,"PSICOLOGA",NULL,NULL,NULL,NULL,NULL,NULL,NULL,NULL,NULL,NULL,NULL,NULL,NULL,NULL,NULL,NULL,"2014-02-10 16:50:38",1,"2018-05-15 13:11:11",1,9
98,88,28,15,115,NULL,"APOYO ADMINISTRATIVO",NULL,NULL,NULL,NULL,NULL,NULL,NULL,NULL,NULL,NULL,NULL,NULL,NULL,NULL,NULL,NULL,"2014-03-25 08:55:55",1,"2015-11-03 08:32:22",1,9
100,47,18,1,1903,NULL,"JEFE DE DEPARTAMENTO",NULL,NULL,NULL,NULL,NULL,NULL,NULL,NULL,NULL,NULL,NULL,NULL,NULL,NULL,NULL,NULL,"2014-06-06 09:56:30",1,"2019-01-09 09:08:22",1,1
101,90,6,1,119,NULL,"JEFE DE OFICINA",NULL,NULL,NULL,NULL,NULL,NULL,NULL,NULL,NULL,NULL,NULL,NULL,NULL,NULL,NULL,NULL,"2014-06-20 15:17:32",1,"2015-08-20 10:31:07",1,9
102,89,31,1,1903,NULL,"JEFE DE DEPARTAMENTO",NULL,NULL,NULL,NULL,NULL,NULL,NULL,NULL,NULL,NULL,NULL,NULL,NULL,NULL,NULL,NULL,"2014-06-23 16:08:34",1,"2020-03-09 13:16:15",1,1
103,92,18,15,115,NULL,"APOYO ADMINISTRATIVO",NULL,NULL,NULL,NULL,NULL,NULL,NULL,NULL,NULL,NULL,NULL,NULL,NULL,NULL,NULL,NULL,"2014-06-27 08:12:04",1,"2015-11-03 08:35:28",1,9
108,97,28,15,115,NULL,"APOYO ADMINISTRATIVO",NULL,NULL,NULL,NULL,NULL,NULL,NULL,NULL,NULL,NULL,NULL,NULL,NULL,NULL,NULL,NULL,"2014-08-25 08:46:59",1,"2015-08-20 10:31:34",1,9
109,98,28,4,115,NULL,"APOYO ADMINISTRATIVO",NULL,NULL,NULL,NULL,NULL,NULL,NULL,NULL,NULL,NULL,NULL,NULL,NULL,NULL,NULL,NULL,"2014-09-05 12:45:46",173,"2014-11-26 08:14:21",173,1
110,99,34,15,115,NULL,"APOYO ADMINISTRATIVO",NULL,"2014-08-25",NULL,NULL,NULL,NULL,NULL,NULL,NULL,NULL,NULL,NULL,NULL,NULL,NULL,NULL,"2014-09-18 08:43:21",1,"2015-11-03 08:32:16",1,9
111,100,32,1,998,NULL,"CONSULTAS",NULL,NULL,NULL,NULL,NULL,NULL,NULL,NULL,NULL,NULL,NULL,NULL,NULL,NULL,NULL,NULL,"2014-10-22 15:41:40",1,"2015-07-06 08:58:15",1,9
112,101,3,2,57,NULL,"PRESIDENTE DEL DIRECTORIO",NULL,NULL,NULL,NULL,NULL,NULL,NULL,NULL,NULL,NULL,NULL,NULL,NULL,NULL,NULL,NULL,"2014-10-30 12:33:36",1,"2015-09-01 16:36:48",1,9
113,102,3,8,57,NULL,"PRESIDENTE DEL DIRECTORIO",NULL,NULL,NULL,NULL,NULL,NULL,NULL,NULL,NULL,NULL,NULL,NULL,NULL,NULL,NULL,NULL,"2014-11-14 08:46:26",1,"2015-09-01 16:36:23",1,9
116,23,46,10,998,NULL,"PRESIDENTE DE COMISION",NULL,NULL,NULL,NULL,NULL,NULL,NULL,NULL,NULL,NULL,NULL,NULL,NULL,NULL,NULL,NULL,"2014-11-20 13:10:59",1,"2020-01-22 14:10:26",1,9
117,104,28,10,120,NULL,"ADMINISTRADORA CENTRO MEDICO",NULL,NULL,NULL,NULL,NULL,NULL,NULL,NULL,NULL,NULL,NULL,NULL,NULL,NULL,NULL,NULL,"2014-11-24 09:19:40",1,"2015-09-01 16:37:36",1,9
118,105,8,15,112,NULL,"ABOGADO",NULL,NULL,NULL,NULL,NULL,NULL,NULL,NULL,NULL,NULL,NULL,NULL,NULL,NULL,NULL,NULL,"2014-11-26 10:31:55",1,"2015-11-03 08:28:48",1,9
119,107,8,15,112,NULL,"ABOGADO",NULL,NULL,NULL,NULL,NULL,NULL,NULL,NULL,NULL,NULL,NULL,NULL,NULL,NULL,NULL,NULL,"2014-11-26 10:32:33",1,"2015-11-03 08:28:28",1,9
120,109,43,15,154,NULL,"COORDINADORA GENERAL",NULL,NULL,NULL,NULL,NULL,NULL,NULL,NULL,NULL,NULL,NULL,NULL,NULL,NULL,NULL,NULL,"2014-11-28 12:29:33",1,"2014-11-28 12:29:33",1,1
121,110,15,15,115,NULL,"APOYO ADMINISTRATIVO",NULL,NULL,NULL,NULL,NULL,NULL,NULL,NULL,NULL,NULL,NULL,NULL,NULL,NULL,NULL,NULL,"2014-12-10 08:49:37",1,"2015-03-17 09:01:13",1,9
122,112,3,8,57,NULL,"PRESIDENTE DEL DIRECTORIO",NULL,NULL,NULL,NULL,NULL,NULL,NULL,NULL,NULL,NULL,NULL,NULL,NULL,NULL,NULL,NULL,"2015-01-05 08:39:38",1,"2018-10-10 07:31:28",1,9
123,113,5,2,58,NULL,"GERENTE",NULL,NULL,NULL,NULL,NULL,NULL,NULL,NULL,NULL,NULL,NULL,NULL,NULL,NULL,NULL,NULL,"2015-01-05 08:54:26",1,"2015-09-01 16:36:56",1,9
124,114,28,15,998,NULL,"ENCARGADO CENTRO MEDICO",NULL,NULL,NULL,NULL,NULL,NULL,NULL,NULL,NULL,NULL,NULL,NULL,NULL,NULL,NULL,NULL,"2015-01-08 12:42:15",1,"2015-11-03 08:33:14",1,9
125,115,34,5,119,NULL,"JEFE DE OFICINA",NULL,NULL,NULL,NULL,NULL,NULL,NULL,NULL,NULL,NULL,NULL,NULL,NULL,NULL,NULL,NULL,"2015-01-20 13:07:39",1,"2016-08-05 14:52:53",1,9
126,116,8,5,119,NULL,"JEFE DE OFICINA",NULL,NULL,NULL,NULL,NULL,NULL,NULL,NULL,NULL,NULL,NULL,NULL,NULL,NULL,NULL,NULL,"2015-01-22 10:07:49",1,"2016-07-27 07:48:43",1,9
127,21,47,1,115,NULL,"APOYO ADMINISTRATIVO",NULL,NULL,NULL,NULL,NULL,NULL,NULL,NULL,NULL,NULL,NULL,NULL,NULL,NULL,NULL,NULL,"2015-01-22 15:52:18",1,"2015-08-20 10:32:04",1,9
128,47,116,1,60,NULL,"SUB GERENTE",NULL,NULL,NULL,NULL,NULL,NULL,NULL,NULL,NULL,NULL,NULL,NULL,NULL,NULL,NULL,NULL,"2015-01-26 08:41:58",1,"2018-05-18 13:30:02",1,1
130,118,28,11,115,NULL,"APOYO ADMINISTRATIVO",NULL,NULL,NULL,NULL,NULL,NULL,NULL,NULL,NULL,NULL,NULL,NULL,NULL,NULL,NULL,NULL,"2015-02-05 13:04:30",1,"2016-09-29 14:40:07",1,1
131,119,28,15,115,NULL,"ENFERMERA",NULL,NULL,NULL,NULL,NULL,NULL,NULL,NULL,NULL,NULL,NULL,NULL,NULL,NULL,NULL,NULL,"2015-02-05 13:05:04",1,"2015-02-05 13:05:03",1,1
132,46,48,1,387,NULL,"SECRETARIA TECNICA",NULL,NULL,NULL,NULL,NULL,NULL,NULL,NULL,NULL,NULL,NULL,NULL,NULL,NULL,NULL,NULL,"2015-02-20 17:10:44",1,"2016-10-04 11:26:46",1,9
133,120,28,1,115,NULL,"APOYO ADMINISTRATIVO",NULL,NULL,NULL,NULL,NULL,NULL,NULL,NULL,NULL,NULL,NULL,NULL,NULL,NULL,NULL,NULL,"2015-03-17 08:41:25",1,"2018-02-06 15:22:42",1,1
134,121,110,15,607,NULL,"JEFE DE OBRAS SOCIALES",NULL,NULL,NULL,NULL,NULL,NULL,NULL,NULL,NULL,NULL,NULL,NULL,NULL,NULL,NULL,NULL,"2015-04-07 13:16:09",1,"2018-05-25 14:27:11",1,9
135,123,18,4,115,NULL,"APOYO ADMINISTRATIVO",NULL,NULL,NULL,NULL,NULL,NULL,NULL,NULL,NULL,NULL,NULL,NULL,NULL,NULL,NULL,NULL,"2015-06-05 11:11:42",1,"2015-06-05 11:11:42",1,1
136,124,14,15,113,NULL,"ENCARGADO DE ALMACEN",NULL,NULL,NULL,NULL,NULL,NULL,NULL,NULL,NULL,NULL,NULL,NULL,NULL,NULL,NULL,NULL,"2015-07-10 09:34:32",1,"2015-10-01 09:06:47",1,1
137,125,28,15,59,NULL,"DIRECTOR MEDICO",NULL,NULL,NULL,NULL,NULL,NULL,NULL,NULL,NULL,NULL,NULL,NULL,NULL,NULL,NULL,NULL,"2015-08-18 09:22:45",1,"2016-07-27 07:45:01",1,9
138,127,3,8,57,NULL,"PRESIDENTE DE DIRECTORIO",NULL,NULL,NULL,NULL,NULL,NULL,NULL,NULL,NULL,NULL,NULL,NULL,NULL,NULL,NULL,NULL,"2015-09-01 15:45:52",1,"2016-07-27 07:41:13",1,9
139,128,5,2,58,NULL,"GERENTE",NULL,NULL,NULL,NULL,NULL,NULL,NULL,NULL,NULL,NULL,NULL,NULL,NULL,NULL,NULL,NULL,"2015-09-04 08:56:41",1,"2016-07-27 07:36:46",1,9
140,129,14,4,998,NULL,"SUPERVISOR DE AREAS VERDES",NULL,NULL,NULL,NULL,NULL,NULL,NULL,NULL,NULL,NULL,NULL,NULL,NULL,NULL,NULL,NULL,"2015-09-07 11:27:26",1,"2016-07-27 07:42:24",1,9
141,130,18,15,115,NULL,"APOYO ADMINISTRATIVO",NULL,NULL,NULL,NULL,NULL,NULL,NULL,NULL,NULL,NULL,NULL,NULL,NULL,NULL,NULL,NULL,"2015-09-08 15:38:15",1,"2017-06-23 11:15:09",1,1
142,132,28,10,115,NULL,"APOYO EN HISTORIAS",NULL,NULL,NULL,NULL,NULL,NULL,NULL,NULL,NULL,NULL,NULL,NULL,NULL,NULL,NULL,NULL,"2015-09-09 09:40:37",1,"2015-11-03 08:30:36",1,9
143,133,28,2,115,NULL,"APOYO EN CENTRO MEDICO",NULL,NULL,NULL,NULL,NULL,NULL,NULL,NULL,NULL,NULL,NULL,NULL,NULL,NULL,NULL,NULL,"2015-09-09 14:42:43",1,"2016-07-27 07:47:11",1,9
144,134,14,15,115,NULL,"APOYO ADMINISTRATIVO",NULL,NULL,NULL,NULL,NULL,NULL,NULL,NULL,NULL,NULL,NULL,NULL,NULL,NULL,NULL,NULL,"2015-09-10 10:18:57",1,"2015-09-10 10:18:56",1,1
145,135,14,1,115,NULL,"CHOFER",NULL,NULL,NULL,NULL,NULL,NULL,NULL,NULL,NULL,NULL,NULL,NULL,NULL,NULL,NULL,NULL,"2015-09-11 11:43:19",1,"2015-09-11 13:00:09",1,1
146,136,11,15,115,NULL,"SUPERVISOR DE SEGURIDAD",NULL,NULL,NULL,NULL,NULL,NULL,NULL,NULL,NULL,NULL,NULL,NULL,NULL,NULL,NULL,NULL,"2015-09-14 09:08:37",1,"2015-09-14 09:08:37",1,1
147,137,24,15,115,NULL,"COORDINADORA DE CASA REFUGIO",NULL,NULL,NULL,NULL,NULL,NULL,NULL,NULL,NULL,NULL,NULL,NULL,NULL,NULL,NULL,NULL,"2015-09-28 16:04:35",1,"2019-03-11 10:30:53",1,9
148,138,14,11,115,NULL,"SERV. LIMPIEZA",NULL,NULL,NULL,NULL,NULL,NULL,NULL,NULL,NULL,NULL,NULL,NULL,NULL,NULL,NULL,NULL,"2015-10-02 12:37:49",1,"2015-10-02 12:37:48",1,1
149,3,50,1,115,NULL,"APOYO ADMINISTRATIVO NO",NULL,NULL,NULL,NULL,NULL,NULL,NULL,NULL,NULL,NULL,NULL,NULL,NULL,NULL,NULL,NULL,"2015-10-12 09:59:27",1,"2016-12-27 10:49:20",1,9
150,139,14,15,115,NULL,"APOYO ADMINISTRATIVO",NULL,NULL,NULL,NULL,NULL,NULL,NULL,NULL,NULL,NULL,NULL,NULL,NULL,NULL,NULL,NULL,"2015-10-13 09:32:42",1,"2020-08-05 10:08:14",1,1
151,2,14,1,998,NULL,"APOYO ADMINISTRATIVO.",NULL,NULL,NULL,NULL,NULL,NULL,NULL,NULL,NULL,NULL,NULL,NULL,NULL,NULL,NULL,NULL,"2015-10-19 17:31:23",1,"2017-01-09 12:04:39",1,9
152,22,62,4,119,NULL,"JEFE DE OFICINA",NULL,NULL,NULL,NULL,NULL,NULL,NULL,NULL,NULL,NULL,NULL,NULL,NULL,NULL,NULL,NULL,"2015-10-29 14:49:29",1,"2016-12-09 12:06:50",1,1
153,10,63,11,575,NULL,"PRESIDENTE DE COMISION DE INVENTARIO",NULL,NULL,NULL,NULL,NULL,NULL,NULL,NULL,NULL,NULL,NULL,NULL,NULL,NULL,NULL,NULL,"2015-11-04 15:10:53",1,"2017-03-06 10:21:26",1,9
154,141,11,11,115,NULL,"SUPERVISOR DE SEGURIDAD",NULL,NULL,NULL,NULL,NULL,NULL,NULL,NULL,NULL,NULL,NULL,NULL,NULL,NULL,NULL,NULL,"2015-11-05 10:50:10",1,"2015-11-05 10:50:09",1,1
155,73,62,15,113,NULL,"ENCARGADO",NULL,NULL,NULL,NULL,NULL,NULL,NULL,NULL,NULL,NULL,NULL,NULL,NULL,NULL,NULL,NULL,"2015-11-09 12:30:54",1,"2017-12-29 09:22:48",1,9
156,142,14,15,115,NULL,"APOYO ADMINISTRATIVO",NULL,NULL,NULL,NULL,NULL,NULL,NULL,NULL,NULL,NULL,NULL,NULL,NULL,NULL,NULL,NULL,"2015-11-18 09:52:10",1,"2015-11-18 09:52:10",1,1
157,143,28,15,115,NULL,"APOYO ADMINISTRATIVO",NULL,NULL,NULL,NULL,NULL,NULL,NULL,NULL,NULL,NULL,NULL,NULL,NULL,NULL,NULL,NULL,"2015-12-02 08:19:21",1,"2015-12-02 08:19:20",1,1
158,144,24,15,115,NULL,"ENCARGADA DE CPS",NULL,NULL,NULL,NULL,NULL,NULL,NULL,NULL,NULL,NULL,NULL,NULL,NULL,NULL,NULL,NULL,"2015-12-10 16:49:12",1,"2016-04-26 08:37:38",1,9
159,145,24,15,115,NULL,"ENCARGADO DE CPS",NULL,NULL,NULL,NULL,NULL,NULL,NULL,NULL,NULL,NULL,NULL,NULL,NULL,NULL,NULL,NULL,"2015-12-10 16:59:01",1,"2015-12-10 16:59:01",1,1
160,146,24,10,115,NULL,"ENCARGADO DE CPS",NULL,NULL,NULL,NULL,NULL,NULL,NULL,NULL,NULL,NULL,NULL,NULL,NULL,NULL,NULL,NULL,"2015-12-10 17:04:13",1,"2015-12-10 17:04:13",1,1
161,147,34,15,113,NULL,"REPONSABLE DE CONSULTORIO JURIDICO",NULL,NULL,NULL,NULL,NULL,NULL,NULL,NULL,NULL,NULL,NULL,NULL,NULL,NULL,NULL,NULL,"2015-12-10 17:09:21",1,"2019-01-24 07:55:32",1,9
162,148,24,11,115,NULL,"ENCARGADO DE CPS",NULL,NULL,NULL,NULL,NULL,NULL,NULL,NULL,NULL,NULL,NULL,NULL,NULL,NULL,NULL,NULL,"2015-12-10 17:13:19",1,"2015-12-10 17:13:18",1,1
163,149,8,2,112,NULL,"ABOGADO",NULL,NULL,NULL,NULL,NULL,NULL,NULL,NULL,NULL,NULL,NULL,NULL,NULL,NULL,NULL,NULL,"2015-12-22 16:35:35",1,"2016-08-05 14:53:12",1,9
164,150,28,11,115,NULL,"APOYO ADMINISTRATIVO",NULL,NULL,NULL,NULL,NULL,NULL,NULL,NULL,NULL,NULL,NULL,NULL,NULL,NULL,NULL,NULL,"2016-01-21 10:44:29",1,"2017-10-17 12:37:41",1,1
165,151,28,15,113,NULL,"RESPONSABLE CENTRO MEDICO",NULL,NULL,NULL,NULL,NULL,NULL,NULL,NULL,NULL,NULL,NULL,NULL,NULL,NULL,NULL,NULL,"2016-02-11 14:56:07",1,"2017-08-21 12:22:43",1,9
166,152,40,4,998,NULL,"VIGILANTE",NULL,NULL,NULL,NULL,NULL,NULL,NULL,NULL,NULL,NULL,NULL,NULL,NULL,NULL,NULL,NULL,"2016-02-12 16:40:52",1,"2016-02-12 16:40:52",1,1
167,153,65,10,998,NULL,"COMISION ",NULL,NULL,NULL,NULL,NULL,NULL,NULL,NULL,NULL,NULL,NULL,NULL,NULL,NULL,NULL,NULL,"2016-03-29 14:43:40",1,"2016-03-29 14:47:42",1,1
168,57,67,4,998,NULL,"COMISION",NULL,NULL,NULL,NULL,NULL,NULL,NULL,NULL,NULL,NULL,NULL,NULL,NULL,NULL,NULL,NULL,"2016-04-05 13:11:09",1,"2018-05-25 14:26:13",1,9
169,155,11,11,115,NULL,"APOYO ADMINISTRATIVO",NULL,NULL,NULL,NULL,NULL,NULL,NULL,NULL,NULL,NULL,NULL,NULL,NULL,NULL,NULL,NULL,"2016-04-06 13:46:47",1,"2020-07-02 08:47:17",1,1
170,156,36,15,115,NULL,"APOYO ADMINISTRATIVO",NULL,NULL,NULL,NULL,NULL,NULL,NULL,NULL,NULL,NULL,NULL,NULL,NULL,NULL,NULL,NULL,"2016-05-02 09:23:21",1,"2018-02-26 09:27:39",1,9
171,157,12,15,115,NULL,"APOYO ADMINISTRATIVO",NULL,NULL,NULL,NULL,NULL,NULL,NULL,NULL,NULL,NULL,NULL,NULL,NULL,NULL,NULL,NULL,"2016-05-02 11:05:17",1,"2017-08-21 12:19:26",1,9
172,19,64,1,62,NULL,"JEFE DE COMISION",NULL,NULL,NULL,NULL,NULL,NULL,NULL,NULL,NULL,NULL,NULL,NULL,NULL,NULL,NULL,NULL,"2016-05-09 13:11:06",1,"2018-05-16 08:51:24",1,9
173,176,14,11,998,NULL,"CHOFER",NULL,NULL,NULL,NULL,NULL,NULL,NULL,NULL,NULL,NULL,NULL,NULL,NULL,NULL,NULL,NULL,"2016-06-06 10:08:49",1,"2020-10-05 12:32:11",1,1
174,204,24,15,998,NULL,"ENCARGADO CPS",NULL,NULL,NULL,NULL,NULL,NULL,NULL,NULL,NULL,NULL,NULL,NULL,NULL,NULL,NULL,NULL,"2016-06-10 08:01:16",1,"2017-08-21 12:24:20",1,9
175,207,3,2,57,NULL,"PRESIDENTE",NULL,NULL,NULL,NULL,NULL,NULL,NULL,NULL,NULL,NULL,NULL,NULL,NULL,NULL,NULL,NULL,"2016-06-21 11:32:32",1,"2016-06-21 11:32:32",1,1
176,196,31,15,998,NULL,"APOYO ADMINISTRATIVO",NULL,NULL,NULL,NULL,NULL,NULL,NULL,NULL,NULL,NULL,NULL,NULL,NULL,NULL,NULL,NULL,"2016-06-28 12:35:01",1,"2020-01-09 07:56:23",1,1
177,208,20,15,115,NULL,"APOYO ADMINISTRATIVO",NULL,NULL,NULL,NULL,NULL,NULL,NULL,NULL,NULL,NULL,NULL,NULL,NULL,NULL,NULL,NULL,"2016-07-01 07:42:47",1,"2017-08-21 12:22:16",1,9
178,209,31,11,115,NULL,"APOYO ADMINISTRATIVO",NULL,NULL,NULL,NULL,NULL,NULL,NULL,NULL,NULL,NULL,NULL,NULL,NULL,NULL,NULL,NULL,"2016-07-01 14:03:22",1,"2016-07-01 14:03:21",1,1
179,210,28,10,998,NULL,"ASESOR CENTRO MEDICO",NULL,NULL,NULL,NULL,NULL,NULL,NULL,NULL,NULL,NULL,NULL,NULL,NULL,NULL,NULL,NULL,"2016-07-09 11:29:11",1,"2016-07-09 11:29:11",1,1
180,211,5,2,58,NULL,"GERENTE",NULL,NULL,NULL,NULL,NULL,NULL,NULL,NULL,NULL,NULL,NULL,NULL,NULL,NULL,NULL,NULL,"2016-07-26 14:34:31",1,"2019-01-31 10:27:21",1,9
181,4,5,9,114,NULL,"SECRETARIA GERENCIA",NULL,NULL,NULL,NULL,NULL,NULL,NULL,NULL,NULL,NULL,NULL,NULL,NULL,NULL,NULL,NULL,"2016-09-01 09:39:35",1,"2016-09-01 11:04:23",1,9
182,212,28,11,115,NULL,"APOYO ADMINISTRATIVO",NULL,NULL,NULL,NULL,NULL,NULL,NULL,NULL,NULL,NULL,NULL,NULL,NULL,NULL,NULL,NULL,"2016-09-02 11:18:10",1,"2020-10-16 10:03:15",1,1
183,213,18,15,998,NULL,"CHOFER",NULL,NULL,NULL,NULL,NULL,NULL,NULL,NULL,NULL,NULL,NULL,NULL,NULL,NULL,NULL,NULL,"2016-09-08 15:17:03",1,"2016-09-08 15:17:02",1,1
184,214,6,2,112,NULL,"SUPERVISORA OCI",NULL,NULL,NULL,NULL,NULL,NULL,NULL,NULL,NULL,NULL,NULL,NULL,NULL,NULL,NULL,NULL,"2016-09-20 09:27:23",1,"2020-10-26 12:54:39",1,1
185,18,48,4,387,NULL,"SECRETARIA TECNICA",NULL,NULL,NULL,NULL,NULL,NULL,NULL,NULL,NULL,NULL,NULL,NULL,NULL,NULL,NULL,NULL,"2016-10-04 11:29:23",1,"2018-03-02 10:43:34",1,9
186,21,107,1,604,NULL,"SECRETARIO DE SCI",NULL,NULL,NULL,NULL,NULL,NULL,NULL,NULL,NULL,NULL,NULL,NULL,NULL,NULL,NULL,NULL,"2016-10-17 10:18:21",1,"2017-05-29 12:34:17",1,1
187,215,22,15,115,NULL,"APOYO ADMINISTRATIVO",NULL,NULL,NULL,NULL,NULL,NULL,NULL,NULL,NULL,NULL,NULL,NULL,NULL,NULL,NULL,NULL,"2016-10-28 08:22:38",1,"2018-11-19 08:03:59",1,9
188,216,101,2,998,NULL,"AUTORIDADES PAD-OS",NULL,NULL,NULL,NULL,NULL,NULL,NULL,NULL,NULL,NULL,NULL,NULL,NULL,NULL,NULL,NULL,"2016-11-03 12:54:20",1,"2016-11-03 14:11:19",1,1
189,216,102,2,998,NULL,"AUTORIDADES PAD-OI",NULL,NULL,NULL,NULL,NULL,NULL,NULL,NULL,NULL,NULL,NULL,NULL,NULL,NULL,NULL,NULL,"2016-11-03 12:55:03",1,"2016-11-03 14:11:41",1,1
190,217,68,15,60,NULL,"SUB GERENTE",NULL,NULL,NULL,NULL,NULL,NULL,NULL,NULL,NULL,NULL,NULL,NULL,NULL,NULL,NULL,NULL,"2016-11-09 09:26:18",1,"2017-03-28 08:02:23",1,1
191,218,10,15,115,NULL,"APOYO ADMINISTRATIVO",NULL,NULL,NULL,NULL,NULL,NULL,NULL,NULL,NULL,NULL,NULL,NULL,NULL,NULL,NULL,NULL,"2016-11-15 11:02:08",1,"2020-01-22 11:39:55",1,1
192,219,28,1,115,NULL,"APOYO ADMINISTRATIVO",NULL,NULL,NULL,NULL,NULL,NULL,NULL,NULL,NULL,NULL,NULL,NULL,NULL,NULL,NULL,NULL,"2016-11-17 12:38:51",1,"2019-01-08 08:18:34",1,1
193,220,28,15,998,NULL,"BOTICA SBCH",NULL,NULL,NULL,NULL,NULL,NULL,NULL,NULL,NULL,NULL,NULL,NULL,NULL,NULL,NULL,NULL,"2016-11-18 12:29:38",1,"2017-07-14 09:02:45",1,9
194,221,11,11,998,NULL,"SUPERVISOR DE SEGURIDAD",NULL,NULL,NULL,NULL,NULL,NULL,NULL,NULL,NULL,NULL,NULL,NULL,NULL,NULL,NULL,NULL,"2016-12-02 09:34:58",1,"2016-12-02 09:35:20",1,1
195,23,28,35,113,NULL,"RESPONSABLE DEL CENTRO MEDICO",NULL,NULL,NULL,NULL,NULL,NULL,NULL,NULL,NULL,NULL,NULL,NULL,NULL,NULL,NULL,NULL,"2017-01-03 08:08:12",1,"2020-01-22 14:14:04",1,9
196,211,104,2,57,NULL,"PRESIDENTA CAFAE",NULL,NULL,NULL,NULL,NULL,NULL,NULL,NULL,NULL,NULL,NULL,NULL,NULL,NULL,NULL,NULL,"2017-01-11 11:19:28",1,"2019-01-31 10:27:08",1,9
197,211,100,2,57,NULL,"PRESIDENTE DEL SCI",NULL,NULL,NULL,NULL,NULL,NULL,NULL,NULL,NULL,NULL,NULL,NULL,NULL,NULL,NULL,NULL,"2017-01-18 12:50:16",1,"2019-01-31 10:27:17",1,9
198,222,8,15,112,NULL,"ABOGADO",NULL,NULL,NULL,NULL,NULL,NULL,NULL,NULL,NULL,NULL,NULL,NULL,NULL,NULL,NULL,NULL,"2017-02-08 08:18:12",1,"2018-06-11 07:59:12",1,1
199,223,110,15,115,NULL,"TECNICO EN INGENIERIA CIVIL",NULL,NULL,NULL,NULL,NULL,NULL,NULL,NULL,NULL,NULL,NULL,NULL,NULL,NULL,NULL,NULL,"2017-02-08 08:20:29",1,"2018-05-25 14:27:34",1,9
200,21,63,1,575,NULL,"PRESIDENTE COMISION INVENTARIO",NULL,NULL,NULL,NULL,NULL,NULL,NULL,NULL,NULL,NULL,NULL,NULL,NULL,NULL,NULL,NULL,"2017-02-23 10:19:49",1,"2019-03-25 10:45:00",1,1
201,23,45,10,113,NULL,"DIV. ASIST. Y PROM. SOCIAL",NULL,NULL,NULL,NULL,NULL,NULL,NULL,NULL,NULL,NULL,NULL,NULL,NULL,NULL,NULL,NULL,"2017-02-24 08:26:35",1,"2020-01-22 14:13:49",1,9
202,224,14,11,998,NULL,"CHOFER",NULL,NULL,NULL,NULL,NULL,NULL,NULL,NULL,NULL,NULL,NULL,NULL,NULL,NULL,NULL,NULL,"2017-03-01 12:13:53",1,"2018-08-02 08:22:23",1,1
203,225,28,15,113,NULL,"JEFE DEL DEPARTAMENTO DEL CENTRO MEDICO",NULL,NULL,NULL,NULL,NULL,NULL,NULL,NULL,NULL,NULL,NULL,NULL,NULL,NULL,NULL,NULL,"2017-03-16 12:27:44",1,"2018-05-16 08:41:51",1,1
204,226,19,2,60,NULL,"SUB GERENTE ",NULL,"2017-03-15",NULL,NULL,NULL,NULL,NULL,NULL,NULL,NULL,NULL,NULL,NULL,NULL,NULL,NULL,"2017-03-22 12:15:37",1,"2020-07-03 12:41:18",1,1
205,228,14,10,61,NULL,"JEFE DE UNIDAD",NULL,NULL,NULL,NULL,NULL,NULL,NULL,NULL,NULL,NULL,NULL,NULL,NULL,NULL,NULL,NULL,"2017-04-18 11:36:06",1,"2018-08-16 08:45:57",1,9
206,229,9,15,119,NULL,"JEFE DE OFICINA",NULL,NULL,NULL,NULL,NULL,NULL,NULL,NULL,NULL,NULL,NULL,NULL,NULL,NULL,NULL,NULL,"2017-05-10 11:22:12",1,"2019-04-17 11:55:59",1,9
207,10,106,11,112,NULL,"COMISION DE ALTAS Y BAJAS",NULL,NULL,NULL,NULL,NULL,NULL,NULL,NULL,NULL,NULL,NULL,NULL,NULL,NULL,NULL,NULL,"2017-05-25 11:09:40",1,"2018-01-03 14:26:52",1,9
208,5,34,11,113,NULL,"ENCARGADO DE CONSULTORIO JURIDICO",NULL,NULL,NULL,NULL,NULL,NULL,NULL,NULL,NULL,NULL,NULL,NULL,NULL,NULL,NULL,NULL,"2017-06-12 14:14:46",1,"2019-10-21 09:13:40",1,1
209,6,24,1,117,NULL,"NUTRICIONISTA",NULL,NULL,NULL,NULL,NULL,NULL,NULL,NULL,NULL,NULL,NULL,NULL,NULL,NULL,NULL,NULL,"2017-06-26 11:52:05",1,"2020-10-14 09:12:11",1,1
210,217,23,15,62,NULL,"JEFE DE DIVISION",NULL,NULL,NULL,NULL,NULL,NULL,NULL,NULL,NULL,NULL,NULL,NULL,NULL,NULL,NULL,NULL,"2017-08-03 09:08:24",1,"2017-08-03 09:08:23",1,1
211,49,103,11,113,NULL,"ENCARGADA DE FONDO DE CAJA CHICA",NULL,NULL,NULL,NULL,NULL,NULL,NULL,NULL,NULL,NULL,NULL,NULL,NULL,NULL,NULL,NULL,"2017-08-10 13:14:23",1,"2018-02-07 14:18:00",1,9
212,73,105,15,113,NULL,"ENCARGADO.",NULL,NULL,NULL,NULL,NULL,NULL,NULL,NULL,NULL,NULL,NULL,NULL,NULL,NULL,NULL,NULL,"2017-08-28 12:59:28",1,"2017-12-29 09:22:53",1,9
213,230,19,15,115,NULL,"APOYO ADMINISTRATIVO",NULL,NULL,NULL,NULL,NULL,NULL,NULL,NULL,NULL,NULL,NULL,NULL,NULL,NULL,NULL,NULL,"2017-09-11 07:52:58",1,"2018-02-08 07:58:29",1,1
214,231,8,2,119,NULL,"JEFE DE OFICINA",NULL,NULL,NULL,NULL,NULL,NULL,NULL,NULL,NULL,NULL,NULL,NULL,NULL,NULL,NULL,NULL,"2017-09-11 08:08:32",1,"2020-10-21 13:28:35",1,9
215,160,8,1,112,NULL,"ABOGADO",NULL,NULL,NULL,NULL,NULL,NULL,NULL,NULL,NULL,NULL,NULL,NULL,NULL,NULL,NULL,NULL,"2017-11-14 08:55:20",1,"2019-05-08 08:00:12",1,1
216,233,18,5,115,NULL,"APOYO ADMINISTRATIVO",NULL,NULL,NULL,NULL,NULL,NULL,NULL,NULL,NULL,NULL,NULL,NULL,NULL,NULL,NULL,NULL,"2017-11-30 08:22:17",1,"2017-11-30 08:22:17",1,1
217,234,109,2,58,NULL,"GERENTE DE INGENIERIA",NULL,NULL,NULL,NULL,NULL,NULL,NULL,NULL,NULL,NULL,NULL,NULL,NULL,NULL,NULL,NULL,"2018-01-09 11:08:14",1,"2019-02-12 12:20:09",1,9
218,234,68,2,58,NULL,"GERENTE DE INGENIERIA",NULL,NULL,NULL,NULL,NULL,NULL,NULL,NULL,NULL,NULL,NULL,NULL,NULL,NULL,NULL,NULL,"2018-01-11 12:12:30",1,"2019-02-12 12:20:05",1,9
219,235,28,15,115,NULL,"APOYO ADMINISTRATIVO",NULL,NULL,NULL,NULL,NULL,NULL,NULL,NULL,NULL,NULL,NULL,NULL,NULL,NULL,NULL,NULL,"2018-02-06 14:22:29",1,"2018-02-06 14:22:29",1,1
220,236,40,15,115,NULL,"APOYO ADMINISTRATIVO",NULL,NULL,NULL,NULL,NULL,NULL,NULL,NULL,NULL,NULL,NULL,NULL,NULL,NULL,NULL,NULL,"2018-02-16 11:47:31",1,"2018-03-01 12:21:40",1,1
221,203,40,15,115,NULL,"DIRECTORA DE I.E.P. V. VEGA",NULL,NULL,NULL,NULL,NULL,NULL,NULL,NULL,NULL,NULL,NULL,NULL,NULL,NULL,NULL,NULL,"2018-03-01 12:15:14",1,"2018-03-01 12:15:28",1,1
222,238,8,11,112,NULL,"ABOGADO",NULL,NULL,NULL,NULL,NULL,NULL,NULL,NULL,NULL,NULL,NULL,NULL,NULL,NULL,NULL,NULL,"2018-03-01 12:27:42",1,"2020-07-24 12:31:15",1,9
223,24,20,11,115,NULL,"APOYO ADMINISTRATIVO",NULL,NULL,NULL,NULL,NULL,NULL,NULL,NULL,NULL,NULL,NULL,NULL,NULL,NULL,NULL,NULL,"2018-03-02 10:44:27",1,"2019-11-13 09:35:23",1,1
224,211,63,1,58,NULL,"PRESIDENTA COMISION INVENTARIO",NULL,NULL,NULL,NULL,NULL,NULL,NULL,NULL,NULL,NULL,NULL,NULL,NULL,NULL,NULL,NULL,"2018-03-07 07:52:08",1,"2019-01-31 10:27:13",1,9
225,164,24,15,115,NULL,"APOYO ADMINISTRATIVO",NULL,NULL,NULL,NULL,NULL,NULL,NULL,NULL,NULL,NULL,NULL,NULL,NULL,NULL,NULL,NULL,"2018-03-16 14:12:27",1,"2018-05-16 08:28:46",1,1
226,12,111,4,998,NULL,"COMITE",NULL,NULL,NULL,NULL,NULL,NULL,NULL,NULL,NULL,NULL,NULL,NULL,NULL,NULL,NULL,NULL,"2018-04-05 12:21:49",1,"2019-03-05 07:58:09",1,9
227,239,13,15,115,NULL,"APOYO ADMINISTRATIVO",NULL,NULL,NULL,NULL,NULL,NULL,NULL,NULL,NULL,NULL,NULL,NULL,NULL,NULL,NULL,NULL,"2018-04-05 13:08:37",1,"2018-04-05 13:08:37",1,1
228,241,14,15,998,NULL,"JARDINERO",NULL,NULL,NULL,NULL,NULL,NULL,NULL,NULL,NULL,NULL,NULL,NULL,NULL,NULL,NULL,NULL,"2018-04-16 08:25:35",1,"2018-04-16 08:25:34",1,1
229,242,112,10,112,NULL,"VACANTE",NULL,NULL,NULL,NULL,NULL,NULL,NULL,NULL,NULL,NULL,NULL,NULL,NULL,NULL,NULL,NULL,"2018-05-09 07:45:29",1,"2018-05-09 07:45:29",1,1
231,28,113,1,58,NULL,"GERENTE DE GESTION DE NEGOCIOS",NULL,NULL,NULL,NULL,NULL,NULL,NULL,NULL,NULL,NULL,NULL,NULL,NULL,NULL,NULL,NULL,"2018-05-16 08:38:02",1,"2018-05-16 08:38:01",1,1
232,231,11,15,112,NULL,"JEFE DE UNIDAD",NULL,NULL,NULL,NULL,NULL,NULL,NULL,NULL,NULL,NULL,NULL,NULL,NULL,NULL,NULL,NULL,"2018-05-16 09:33:56",1,"2018-06-04 09:07:20",1,9
233,12,114,4,60,NULL,"SUB GERENTE",NULL,NULL,NULL,NULL,NULL,NULL,NULL,NULL,NULL,NULL,NULL,NULL,NULL,NULL,NULL,NULL,"2018-05-18 08:04:34",1,"2019-01-07 13:59:19",1,9
234,243,11,2,112,NULL,"JEFE DE UNIDAD",NULL,NULL,NULL,NULL,NULL,NULL,NULL,NULL,NULL,NULL,NULL,NULL,NULL,NULL,NULL,NULL,"2018-06-04 09:03:32",1,"2018-07-24 10:19:45",1,9
235,226,20,15,115,NULL,"APOYO ADMINISTRATIVO",NULL,NULL,NULL,NULL,NULL,NULL,NULL,NULL,NULL,NULL,NULL,NULL,NULL,NULL,NULL,NULL,"2018-06-05 11:08:45",1,"2020-07-03 12:41:05",1,9
237,211,117,2,57,NULL,"PRESIDENTA COMITE ARRENDAMIENTOS",NULL,NULL,NULL,NULL,NULL,NULL,NULL,NULL,NULL,NULL,NULL,NULL,NULL,NULL,NULL,NULL,"2018-06-27 12:39:50",1,"2019-01-31 10:27:04",1,9
238,229,12,15,61,NULL,"JEFE DE UNIDAD",NULL,NULL,NULL,NULL,NULL,NULL,NULL,NULL,NULL,NULL,NULL,NULL,NULL,NULL,NULL,NULL,"2018-07-05 11:03:27",1,"2019-04-17 11:55:54",1,9
239,231,48,15,112,NULL,"SECRETARIO TECNICO (SUPLENTE)",NULL,NULL,NULL,NULL,NULL,NULL,NULL,NULL,NULL,NULL,NULL,NULL,NULL,NULL,NULL,NULL,"2018-07-13 12:40:20",1,"2019-04-17 11:55:25",1,9
240,50,24,1,115,NULL,"APOYO ADMINISTRATIVO",NULL,NULL,NULL,NULL,NULL,NULL,NULL,NULL,NULL,NULL,NULL,NULL,NULL,NULL,NULL,NULL,"2018-07-16 09:25:09",1,"2018-07-16 09:25:08",1,1
241,41,104,1,114,NULL,"SECRETARIA CAFAE",NULL,NULL,NULL,NULL,NULL,NULL,NULL,NULL,NULL,NULL,NULL,NULL,NULL,NULL,NULL,NULL,"2018-07-18 12:48:37",1,"2018-07-18 12:53:13",1,1
242,53,104,1,115,NULL,"TESORERA CAFAE",NULL,NULL,NULL,NULL,NULL,NULL,NULL,NULL,NULL,NULL,NULL,NULL,NULL,NULL,NULL,NULL,"2018-07-18 12:52:18",1,"2018-07-18 12:52:17",1,1
243,12,10,4,115,NULL,"APOYO ADMINISTRATIVO",NULL,NULL,NULL,NULL,NULL,NULL,NULL,NULL,NULL,NULL,NULL,NULL,NULL,NULL,NULL,NULL,"2018-08-17 10:09:55",1,"2020-05-27 11:21:47",1,9
244,245,11,2,112,NULL,"ABOGADO",NULL,NULL,NULL,NULL,NULL,NULL,NULL,NULL,NULL,NULL,NULL,NULL,NULL,NULL,NULL,NULL,"2018-08-20 10:37:00",1,"2020-10-15 13:21:56",1,9
245,247,6,15,115,NULL,"CONTADOR",NULL,NULL,NULL,NULL,NULL,NULL,NULL,NULL,NULL,NULL,NULL,NULL,NULL,NULL,NULL,NULL,"2018-08-20 10:40:47",1,"2018-08-20 10:40:46",1,1
246,248,3,8,607,NULL,"PRESIDENTE DEL DIRECTORIO",NULL,NULL,NULL,NULL,NULL,NULL,NULL,NULL,NULL,NULL,NULL,NULL,NULL,NULL,NULL,NULL,"2018-10-10 07:28:50",1,"2018-12-18 11:54:02",1,9
247,250,3,8,57,NULL,"PRESIDENTA DEL DIRECTORIO",NULL,NULL,NULL,NULL,NULL,NULL,NULL,NULL,NULL,NULL,NULL,NULL,NULL,NULL,NULL,NULL,"2018-12-17 10:25:50",1,"2019-01-10 08:58:02",1,9
248,30,14,11,61,NULL,"JEFE DE UNIDAD",NULL,NULL,NULL,NULL,NULL,NULL,NULL,NULL,NULL,NULL,NULL,NULL,NULL,NULL,NULL,NULL,"2019-01-03 10:58:29",1,"2020-04-20 11:35:37",1,1
249,251,3,8,57,NULL,"PRESIDENTE DE DIRECTORIO",NULL,NULL,NULL,NULL,NULL,NULL,NULL,NULL,NULL,NULL,NULL,NULL,NULL,NULL,NULL,NULL,"2019-01-10 08:52:12",1,"2019-04-24 14:28:32",1,9
250,252,5,2,112,NULL,"GERENTE GENERAL",NULL,NULL,NULL,NULL,NULL,NULL,NULL,NULL,NULL,NULL,NULL,NULL,NULL,NULL,NULL,NULL,"2019-01-15 11:24:40",1,"2019-06-12 07:44:39",1,9
251,253,14,2,61,NULL,"JEFE DE UNIDAD",NULL,NULL,NULL,NULL,NULL,NULL,NULL,NULL,NULL,NULL,NULL,NULL,NULL,NULL,NULL,NULL,"2019-01-21 11:08:56",1,"2019-04-17 11:10:08",1,9
252,254,24,2,58,NULL,"GERENTE ",NULL,NULL,NULL,NULL,NULL,NULL,NULL,NULL,NULL,NULL,NULL,NULL,NULL,NULL,NULL,NULL,"2019-01-24 11:31:15",1,"2020-01-23 08:18:30",1,1
253,255,15,1,115,NULL,"APOYO ADMINISTRATIVO",NULL,NULL,NULL,NULL,NULL,NULL,NULL,NULL,NULL,NULL,NULL,NULL,NULL,NULL,NULL,NULL,"2019-02-07 09:49:56",1,"2019-02-07 09:49:55",1,1
254,252,118,2,112,NULL,"PRESIDENTE DE COMISION",NULL,NULL,NULL,NULL,NULL,NULL,NULL,NULL,NULL,NULL,NULL,NULL,NULL,NULL,NULL,NULL,"2019-02-08 07:46:56",1,"2019-06-12 07:44:35",1,9
255,256,109,2,58,NULL,"GERENTE DE INGENIERIA",NULL,NULL,NULL,NULL,NULL,NULL,NULL,NULL,NULL,NULL,NULL,NULL,NULL,NULL,NULL,NULL,"2019-02-12 12:21:44",1,"2019-04-17 11:54:57",1,9
256,258,8,11,112,NULL,"ABOGADO",NULL,NULL,NULL,NULL,NULL,NULL,NULL,NULL,NULL,NULL,NULL,NULL,NULL,NULL,NULL,NULL,"2019-03-04 08:22:50",1,"2019-07-18 12:23:06",1,9
257,257,8,11,112,NULL,"ABOGADO",NULL,NULL,NULL,NULL,NULL,NULL,NULL,NULL,NULL,NULL,NULL,NULL,NULL,NULL,NULL,NULL,"2019-03-04 08:24:01",1,"2019-07-08 09:12:02",1,9
258,259,13,11,61,NULL,"JEFE DE UNIDAD",NULL,NULL,NULL,NULL,NULL,NULL,NULL,NULL,NULL,NULL,NULL,NULL,NULL,NULL,NULL,NULL,"2019-03-04 14:25:49",1,"2020-09-09 13:23:42",1,9
259,260,28,11,1903,NULL,"JEFE DE DEPARTAMENTO",NULL,NULL,NULL,NULL,NULL,NULL,NULL,NULL,NULL,NULL,NULL,NULL,NULL,NULL,NULL,NULL,"2019-03-05 07:39:17",1,"2019-03-05 07:39:16",1,1
260,261,112,11,115,NULL,"APOYO ADMINISTRATIVO",NULL,NULL,NULL,NULL,NULL,NULL,NULL,NULL,NULL,NULL,NULL,NULL,NULL,NULL,NULL,NULL,"2019-03-06 08:20:26",1,"2019-04-15 10:11:35",1,9
261,262,18,11,998,NULL,"CHOFER",NULL,NULL,NULL,NULL,NULL,NULL,NULL,NULL,NULL,NULL,NULL,NULL,NULL,NULL,NULL,NULL,"2019-03-06 14:00:47",1,"2020-08-06 09:24:29",1,1
262,263,45,11,156,NULL,"COORDINADORA DE CASA REFUGIO",NULL,NULL,NULL,NULL,NULL,NULL,NULL,NULL,NULL,NULL,NULL,NULL,NULL,NULL,NULL,NULL,"2019-03-11 10:28:01",1,"2020-01-22 14:26:44",1,9
263,245,8,11,112,NULL,"ABOGADO",NULL,NULL,NULL,NULL,NULL,NULL,NULL,NULL,NULL,NULL,NULL,NULL,NULL,NULL,NULL,NULL,"2019-04-23 12:08:05",1,"2020-10-05 11:40:10",1,1
264,264,3,2,57,NULL,"PRESIDENTE DEL DIRECTORIO",NULL,NULL,NULL,NULL,NULL,NULL,NULL,NULL,NULL,NULL,NULL,NULL,NULL,NULL,NULL,NULL,"2019-04-24 14:29:28",1,"2019-05-09 12:55:09",1,9
266,252,117,2,57,NULL,"PRESIDENTE DE COMITE",NULL,NULL,NULL,NULL,NULL,NULL,NULL,NULL,NULL,NULL,NULL,NULL,NULL,NULL,NULL,NULL,"2019-05-07 15:37:47",1,"2019-06-12 07:44:31",1,9
267,266,3,8,57,NULL,"PRESIDENTE DEL DIRECTORIO",NULL,NULL,NULL,NULL,NULL,NULL,NULL,NULL,NULL,NULL,NULL,NULL,NULL,NULL,NULL,NULL,"2019-05-09 12:56:39",1,"2019-05-17 14:49:40",1,9
268,267,3,2,57,NULL,"PRESIDENTE DEL DIRECTORIO",NULL,NULL,NULL,NULL,NULL,NULL,NULL,NULL,NULL,NULL,NULL,NULL,NULL,NULL,NULL,NULL,"2019-05-17 14:31:12",1,"2020-08-21 13:17:25",1,9
269,263,112,11,60,NULL,"SUB GERENTE",NULL,NULL,NULL,NULL,NULL,NULL,NULL,NULL,NULL,NULL,NULL,NULL,NULL,NULL,NULL,NULL,"2019-05-21 12:55:39",1,"2020-01-22 14:27:18",1,1
270,268,8,2,119,NULL,"JEFE DE OFICINA",NULL,NULL,NULL,NULL,NULL,NULL,NULL,NULL,NULL,NULL,NULL,NULL,NULL,NULL,NULL,NULL,"2019-05-23 10:03:23",1,"2020-04-15 11:28:40",1,9
271,269,109,2,58,NULL,"GERENTE DE INGENIERIA",NULL,NULL,NULL,NULL,NULL,NULL,NULL,NULL,NULL,NULL,NULL,NULL,NULL,NULL,NULL,NULL,"2019-05-30 10:23:14",1,"2020-08-18 09:25:15",1,9
272,254,34,2,113,NULL,"ENCARGADO DE CONSULTORIO JURIDICO",NULL,NULL,NULL,NULL,NULL,NULL,NULL,NULL,NULL,NULL,NULL,NULL,NULL,NULL,NULL,NULL,"2019-06-05 08:07:45",1,"2019-09-16 09:22:38",1,9
273,272,5,2,58,NULL,"GERENTE GENERAL",NULL,NULL,NULL,NULL,NULL,NULL,NULL,NULL,NULL,NULL,NULL,NULL,NULL,NULL,NULL,NULL,"2019-06-11 12:42:32",1,"2020-04-15 11:27:57",1,9
274,272,117,2,57,NULL,"PRESIDENTE DE COMITE",NULL,NULL,NULL,NULL,NULL,NULL,NULL,NULL,NULL,NULL,NULL,NULL,NULL,NULL,NULL,NULL,"2019-06-12 10:21:53",1,"2020-04-15 11:28:20",1,9
275,273,28,11,115,NULL,"ASISTENTE ADMINISTRATIVO",NULL,NULL,NULL,NULL,NULL,NULL,NULL,NULL,NULL,NULL,NULL,NULL,NULL,NULL,NULL,NULL,"2019-06-13 09:43:13",1,"2020-10-05 12:04:40",1,1
276,274,28,10,1903,NULL,"JEFE DE DEPARTAMENTO",NULL,NULL,NULL,NULL,NULL,NULL,NULL,NULL,NULL,NULL,NULL,NULL,NULL,NULL,NULL,NULL,"2019-06-13 12:53:04",1,"2019-06-13 12:59:15",1,1
277,21,110,1,112,NULL,"APOYO ADMINISTRATIVO",NULL,NULL,NULL,NULL,NULL,NULL,NULL,NULL,NULL,NULL,NULL,NULL,NULL,NULL,NULL,NULL,"2019-06-24 11:41:30",1,"2019-06-24 11:41:30",1,1
278,155,3,11,115,NULL,"SECRETARIA DE PRESIDENCIA",NULL,NULL,NULL,NULL,NULL,NULL,NULL,NULL,NULL,NULL,NULL,NULL,NULL,NULL,NULL,NULL,"2019-06-28 10:38:08",1,"2019-06-28 10:38:08",1,1
279,272,104,2,57,NULL,"PRESIDENTE CAFAE",NULL,NULL,NULL,NULL,NULL,NULL,NULL,NULL,NULL,NULL,NULL,NULL,NULL,NULL,NULL,NULL,"2019-07-01 11:41:33",1,"2020-04-15 11:28:15",1,9
280,275,8,11,112,NULL,"ABOGADO",NULL,NULL,NULL,NULL,NULL,NULL,NULL,NULL,NULL,NULL,NULL,NULL,NULL,NULL,NULL,NULL,"2019-07-08 09:43:47",1,"2020-01-02 12:55:17",1,9
281,276,11,11,61,NULL,"JEFE DE UNIDAD",NULL,NULL,NULL,NULL,NULL,NULL,NULL,NULL,NULL,NULL,NULL,NULL,NULL,NULL,NULL,NULL,"2019-08-02 14:22:43",1,"2020-10-05 11:44:00",1,1
282,277,28,11,1903,NULL,"JEFE DE DEPARTAMENTO",NULL,NULL,NULL,NULL,NULL,NULL,NULL,NULL,NULL,NULL,NULL,NULL,NULL,NULL,NULL,NULL,"2019-09-02 13:07:37",1,"2019-09-02 13:07:37",1,1
283,278,2,11,115,NULL,"RECAUDACION CENTRO MEDICO","CONTRATO","2019-09-10",NULL,NULL,NULL,NULL,NULL,NULL,NULL,NULL,NULL,NULL,NULL,NULL,NULL,NULL,"2019-09-10 11:04:34",1,"2019-09-20 10:35:29",1,1
284,279,109,11,607,NULL,"APOYO ADMINISTRATIVO",NULL,NULL,NULL,NULL,NULL,NULL,NULL,NULL,NULL,NULL,NULL,NULL,NULL,NULL,NULL,NULL,"2019-10-18 07:43:55",1,"2020-02-04 08:04:16",1,9
285,272,44,2,58,NULL,"PRESIDENTE COMITE PROCESO SELECCION",NULL,NULL,NULL,NULL,NULL,NULL,NULL,NULL,NULL,NULL,NULL,NULL,NULL,NULL,NULL,NULL,"2019-11-05 13:28:12",1,"2020-04-15 11:28:09",1,9
286,245,11,11,112,NULL,"ABOGADO DE PROCESOS ADMINIST. DISCIPLINARIOS",NULL,NULL,NULL,NULL,NULL,NULL,NULL,NULL,NULL,NULL,NULL,NULL,NULL,NULL,NULL,NULL,"2019-11-08 09:08:35",1,"2020-10-15 13:22:17",1,1
287,31,9,1,119,NULL,"JEFE DE OFICINA",NULL,NULL,NULL,NULL,NULL,NULL,NULL,NULL,NULL,NULL,NULL,NULL,NULL,NULL,NULL,NULL,"2019-11-08 10:33:45",1,"2020-05-27 11:29:02",1,1
288,12,119,4,575,NULL,"PRESIDENTE DE COMISION",NULL,NULL,NULL,NULL,NULL,NULL,NULL,NULL,NULL,NULL,NULL,NULL,NULL,NULL,NULL,NULL,"2019-11-28 13:16:56",1,"2020-05-27 11:21:30",1,9
289,272,120,2,575,NULL,"PRESIDENTE COMISION",NULL,NULL,NULL,NULL,NULL,NULL,NULL,NULL,NULL,NULL,NULL,NULL,NULL,NULL,NULL,NULL,"2019-12-13 10:42:06",1,"2020-04-15 11:28:03",1,9
290,280,13,11,115,NULL,"APOYO ADMINISTRATIVO",NULL,NULL,NULL,NULL,NULL,NULL,NULL,NULL,NULL,NULL,NULL,NULL,NULL,NULL,NULL,NULL,"2020-01-15 12:09:15",1,"2020-01-15 12:09:15",1,1
291,281,8,11,115,NULL,"APOYO ADMINISTRATIVO",NULL,NULL,NULL,NULL,NULL,NULL,NULL,NULL,NULL,NULL,NULL,NULL,NULL,NULL,NULL,NULL,"2020-01-20 10:25:58",1,"2020-01-20 10:25:57",1,1
292,282,28,11,115,NULL,"RECAUDACION CENTRO MEDICO",NULL,NULL,NULL,NULL,NULL,NULL,NULL,NULL,NULL,NULL,NULL,NULL,NULL,NULL,NULL,NULL,"2020-01-20 13:13:37",1,"2020-01-20 13:13:36",1,1
293,283,18,11,1903,NULL,"JEFE DE DEPARTAMENTO",NULL,NULL,NULL,NULL,NULL,NULL,NULL,NULL,NULL,NULL,NULL,NULL,NULL,NULL,NULL,NULL,"2020-02-14 10:36:54",1,"2020-02-14 10:36:54",1,1
294,284,11,11,115,NULL,"APOYO ADMINISTRATIVO",NULL,NULL,NULL,NULL,NULL,NULL,NULL,NULL,NULL,NULL,NULL,NULL,NULL,NULL,NULL,NULL,"2020-02-21 12:35:28",1,"2020-02-21 12:35:28",1,1
295,285,5,2,58,NULL,"GERENTE GENERAL",NULL,NULL,NULL,NULL,NULL,NULL,NULL,NULL,NULL,NULL,NULL,NULL,NULL,NULL,NULL,NULL,"2020-04-08 14:31:14",1,"2020-06-03 12:34:28",1,9
297,2,32,4,607,NULL,"GESTION DOCUMENTARIA",NULL,NULL,NULL,NULL,NULL,NULL,NULL,NULL,NULL,NULL,NULL,NULL,NULL,NULL,NULL,NULL,"2020-05-29 09:10:59",1,"2020-06-05 14:22:23",1,9
298,286,5,2,58,NULL,"GERENTE GENERAL",NULL,NULL,NULL,NULL,NULL,NULL,NULL,NULL,NULL,NULL,NULL,NULL,NULL,NULL,NULL,NULL,"2020-06-01 11:37:58",1,"2020-06-01 11:37:57",1,1
299,155,5,11,115,NULL,"SECRETARIA DE GERENCIA GENERAL",NULL,NULL,NULL,NULL,NULL,NULL,NULL,NULL,NULL,NULL,NULL,NULL,NULL,NULL,NULL,NULL,"2020-07-02 08:46:52",1,"2020-07-02 08:46:52",1,1
300,226,13,2,61,NULL,"JEFE DE UNIDAD",NULL,NULL,NULL,NULL,NULL,NULL,NULL,NULL,NULL,NULL,NULL,NULL,NULL,NULL,NULL,NULL,"2020-07-03 12:40:45",1,"2020-07-22 09:38:42",1,9
301,273,113,2,58,NULL,"GERENTE DE GESTION DE NEGOCIOS",NULL,NULL,NULL,NULL,NULL,NULL,NULL,NULL,NULL,NULL,NULL,NULL,NULL,NULL,NULL,NULL,"2020-07-13 11:52:52",1,"2020-09-09 08:26:48",1,9
302,263,24,2,58,NULL,"GERENTE DE ASISTENCIA Y PROM. SOC.",NULL,NULL,NULL,NULL,NULL,NULL,NULL,NULL,NULL,NULL,NULL,NULL,NULL,NULL,NULL,NULL,"2020-07-24 09:46:23",1,"2020-07-24 09:46:22",1,1
303,288,8,11,112,NULL,"ABOGADO",NULL,NULL,NULL,NULL,NULL,NULL,NULL,NULL,NULL,NULL,NULL,NULL,NULL,NULL,NULL,NULL,"2020-07-24 12:33:26",1,"2020-10-23 13:03:32",1,9
304,289,8,11,112,NULL,"ABOGADO",NULL,NULL,NULL,NULL,NULL,NULL,NULL,NULL,NULL,NULL,NULL,NULL,NULL,NULL,NULL,NULL,"2020-07-24 12:39:06",1,"2020-10-23 13:03:00",1,9
305,245,10,11,120,NULL,"JEFE DE OFICINA GENERAL DE ADMINISTRACION",NULL,NULL,NULL,NULL,NULL,NULL,NULL,NULL,NULL,NULL,NULL,NULL,NULL,NULL,NULL,NULL,"2020-08-11 11:32:51",1,"2020-10-05 11:37:49",1,9
306,226,117,11,112,NULL,"PRESIDENTE DE COMITE ARRENDAMIENTOS",NULL,NULL,NULL,NULL,NULL,NULL,NULL,NULL,NULL,NULL,NULL,NULL,NULL,NULL,NULL,NULL,"2020-08-12 12:48:34",1,"2020-08-12 12:48:34",1,1
307,290,109,2,58,NULL,"GERENTE DE INGENIERIA",NULL,NULL,NULL,NULL,NULL,NULL,NULL,NULL,NULL,NULL,NULL,NULL,NULL,NULL,NULL,NULL,"2020-08-18 09:26:40",1,"2020-09-17 13:40:43",1,9
308,291,8,11,112,NULL,"ABOGADO",NULL,NULL,NULL,NULL,NULL,NULL,NULL,NULL,NULL,NULL,NULL,NULL,NULL,NULL,NULL,NULL,"2020-08-20 10:14:02",1,"2020-10-01 12:55:18",1,9
309,292,3,8,57,NULL,"PRESIDENTE DEL DIRECTORIO",NULL,NULL,NULL,NULL,NULL,NULL,NULL,NULL,NULL,NULL,NULL,NULL,NULL,NULL,NULL,NULL,"2020-08-21 13:14:18",1,"2020-08-21 13:16:04",1,1
310,226,113,2,58,NULL,"GERENTE DE GESTION DE NEGOCIOS",NULL,NULL,NULL,NULL,NULL,NULL,NULL,NULL,NULL,NULL,NULL,NULL,NULL,NULL,NULL,NULL,"2020-09-08 12:13:03",1,"2020-09-08 12:13:03",1,1
311,293,13,2,61,NULL,"JEFE DE UNIDAD",NULL,NULL,NULL,NULL,NULL,NULL,NULL,NULL,NULL,NULL,NULL,NULL,NULL,NULL,NULL,NULL,"2020-09-17 08:20:43",1,"2020-09-17 08:20:43",1,1
312,294,113,2,58,NULL,"GERENTE DE GESTION DE NEGOCIOS",NULL,NULL,NULL,NULL,NULL,NULL,NULL,NULL,NULL,NULL,NULL,NULL,NULL,NULL,NULL,NULL,"2020-10-05 08:54:05",1,"2020-10-05 08:54:05",1,1
313,295,114,2,60,NULL,"SUB GERENTE DE NEGOCIOS",NULL,NULL,NULL,NULL,NULL,NULL,NULL,NULL,NULL,NULL,NULL,NULL,NULL,NULL,NULL,NULL,"2020-10-05 09:41:10",1,"2020-10-05 09:41:09",1,1
314,173,11,4,115,NULL,"SUPERVISOR DE VIGILANCIA",NULL,NULL,NULL,NULL,NULL,NULL,NULL,NULL,NULL,NULL,NULL,NULL,NULL,NULL,NULL,NULL,"2020-10-07 08:48:56",1,"2020-10-07 08:48:56",1,1
316,297,109,11,607,NULL,"INGENIERO",NULL,NULL,NULL,NULL,NULL,NULL,NULL,NULL,NULL,NULL,NULL,NULL,NULL,NULL,NULL,NULL,"2020-10-19 11:55:59",1,"2020-10-19 11:55:59",1,1
317,295,8,2,119,NULL,"JEFE DE OFICINA",NULL,NULL,NULL,NULL,NULL,NULL,NULL,NULL,NULL,NULL,NULL,NULL,NULL,NULL,NULL,NULL,"2020-10-21 12:38:42",1,"2020-10-21 12:38:42",1,1
318,298,6,2,119,NULL,"JEFE OFICINA",NULL,NULL,NULL,NULL,NULL,NULL,NULL,NULL,NULL,NULL,NULL,NULL,NULL,NULL,NULL,NULL,"2020-10-26 12:49:17",1,"2020-10-26 12:50:55",1,1
