"sesg_id","segr_id","sesg_descripcion","sesg_fregistro","usua_id","sesg_descripbreve","sesg_cementerio"
1,1,"ESPECIALIDADES","2013-07-22 18:01:59",1,"ESPECIALIDADES",0
3,2,"RADIOGRAFIAS","2013-07-22 18:05:11",1,"RADIOGRAFIAS",0
4,4,"HEMATOLOGIA","2013-07-22 18:06:15",1,"HEMATOLOGIA",0
5,4,"INMUNOLOGIA","2013-07-22 18:06:42",1,"INMUNOLOGIA",0
6,4,"BIOQUIMICA","2013-07-22 18:07:32",1,"BIOQUIMICA",0
7,4,"UROANALISIS","2013-07-22 18:07:49",1,"UROANALISIS",0
8,4,"HECES","2013-07-22 18:08:00",1,"HECES",0
9,4,"MICROBIOLOGIA","2013-07-22 18:08:14",1,"MICROBIOLOGIA",0
12,5,"OTROS SERVICIOS","2013-08-05 17:15:00",1,"OTROS SERVICIOS",0
13,3,"ECOGRAFIAS-CESPEDES","2013-11-07 17:19:07",1,"ECOG.-CESPEDES",0
14,7,"NICHOS","2013-12-30 10:22:24",1,"NICHOS",0
15,7,"OTROS","2013-12-30 10:23:36",1,"OTROS",0
17,8,"HEMATOLOGIA","2014-03-03 12:32:24",1,"HEMATOLOGIA",0
18,8,"INMUNOLOGIA","2014-03-03 12:32:43",1,"INMUNOLOGIA",0
19,8,"BIOQUIMICA","2014-03-03 12:32:53",1,"BIOQUIMICA",0
20,8,"UROANALISIS","2014-03-03 12:33:04",1,"UROANALISIS",0
21,8,"HECES","2014-03-03 12:33:14",1,"HECES",0
22,8,"MICROBIOLOGIA","2014-03-03 12:33:25",1,"MICROBIOLOGIA",0
23,28,"COMPONENTES","2014-04-04 18:26:46",1,"COMPONENTES",0
24,29,"SEPULTURA","2014-04-12 20:14:11",1,"SEPULTURA",0
25,30,"INTERNAS","2014-04-15 11:31:18",1,"INTERNAS",0
26,30,"EXTERNAS","2014-04-15 11:31:48",1,"EXTERNAS",0
28,31,"CARROZA","2014-04-08 11:46:55",1,"TRANSP",0
29,36,"VELATORIO","2014-04-08 11:47:59",1,"VELATORIO",0
30,29,"LAPIDA","2015-01-19 14:56:23",1,"LAPIDA",1
31,29,"PROTECTOR","2015-01-19 14:56:34",1,"PROTECTOR",1
32,29,"ENCHAPE","2015-01-19 14:56:41",1,"ENCHAPE",1
38,29,"OTROS","2014-04-13 13:18:39",1,"OTROS",1
39,37,"INSCRIPCION","2014-07-09 16:55:38",146,"INSCRIPCION",0
40,36,"TEATRO","2014-08-06 19:02:36",1,"TEATRO",0
41,37,"CUOTAS","2014-08-06 19:24:11",1,"CUOTAS",0
42,38,"IEP V.DE LA VEGA","2014-08-06 19:32:07",1,"IEP V.DE LA VEGA",0
43,50,"ESTACIONAMIENTO","2014-08-06 19:43:29",1,"ESTACIONAMIENTO",0
44,39,"ANA.CLINICOS","2014-08-09 11:57:08",1,"ANA.CLINICOS",0
45,39,"RADIOGRACIAS","2014-08-09 11:57:22",1,"RADIOGRAF.",0
46,39,"ECOGRAFIAS","2014-08-09 11:57:35",1,"ECOGRAF.",0
47,40,"ATAUDES","2014-08-10 11:21:31",1,"ATAUDES",0
48,37,"OTROS","2014-08-10 11:32:45",1,"OTROS",0
49,42,"CEMENTERIO","2014-08-10 19:25:07",1,"CEMENTERIO",0
50,39,"BOTICA","2014-08-11 08:17:20",1,"BOTICA",0
51,44,"COMEDOR","2014-08-11 14:34:17",151,"COMEDOR",0
52,50,"OTROS","2014-08-12 08:37:54",1,"OTROS",0
53,50,"SERV. HIGIENICOS","2014-08-12 11:54:59",1,"SERV. HIG.",0
54,45,"ECOGRAFIAS","2014-09-05 12:09:21",167,"ECOGRAFIAS",0
55,46,"GINECOLOGIA","2014-09-05 12:22:23",167,"GINECOLOGIA",0
56,39,"CONSULTAS MEDICAS","2014-09-08 14:26:09",1,"CONS. MEDICAS",0
57,3,"ECOGRAFIAS-SEMEGO","2014-09-08 16:58:13",1,"ECOG.-SEMEGO",0
59,36,"CAPILLA","2014-11-12 15:04:42",1,"CAPILLA",0
60,47,"ECO.HORNA","2014-11-17 09:13:46",1,"ECO.HORNA",0
64,3,"ECOGRAFIAS-HORNA","2015-01-27 15:42:03",1,"ECOG.-HORNA",0
99,36,"GARANTIA DE ARRENDAMIENTO","2018-11-07 11:02:12",1,"GARANTIA",0
100,52,"APORTACIONES DEL EMPLEADOR","2015-02-06 14:49:45",1,"APORTACIONES DEL EMP",0
101,60,"EJECUCION DE GASTOS","2015-02-06 14:49:45",1,"EJECUCION DE GASTOS",0
102,61,"EJECUCION PROVISIONAL","2015-02-06 14:49:45",1,"EJECUCION PROVISIONA",0
103,62,"REPOSICION FPPE","2015-02-06 14:49:45",1,"REPOSICION FPPE",0
104,63,"APERTURA FPPE","2015-02-06 14:49:45",1,"APERTURA FPPE",0
105,64,"NEA","2015-02-06 14:49:45",1,"NEA",0
106,65,"APERTURA FONDO PARA CAJA CHICA","2015-02-06 14:49:45",1,"APERTURA FONDO PARA",0
107,66,"EJECUCION DE BIENES","2015-02-06 14:49:45",1,"EJECUCION DE BIENES",0
108,67,"EJECUCION DE SERVICIOS","2015-02-06 14:49:45",1,"EJECUCION DE SERVICI",0
109,68,"REPOSICION FONDO PARA CAJA CHICA","2015-02-06 14:49:45",1,"REPOSICION FONDO PAR",0
110,89,"RETENCION","2015-02-06 14:49:45",1,"RETENCION",0
111,90,"DETRACCION","2015-02-06 14:49:45",1,"DETRACCION",0
112,99,"EJECUCION SIN AFECTACION","2015-02-06 14:49:45",1,"EJECUCION SIN AFECTA",0
113,69,"ADN","2015-09-09 16:44:19",1,"ADN",0
114,70,"CENTRO OFTALMOLOGICO CHICLAYO","2016-01-15 09:03:26",1,"CENT.OFTALM.",0
115,71,"LIC. ROSA INCIO - PAP","2016-04-14 09:11:57",1,"LIC.INCIO-PAP",0
116,72,"HEMATOLOGIA","2017-01-12 09:37:31",1,"HEMATOLOGIA",0
117,72,"INMUNOLOGIA","2017-01-12 09:37:43",1,"INMUNOLOGIA",0
118,72,"BIOQUIMICA","2017-01-12 09:37:53",1,"BIOQUIMICA",0
119,72,"UROANALISIS","2017-01-12 09:38:07",1,"UROANALISIS",0
120,72,"HECES","2017-01-12 09:38:18",1,"HECES",0
121,72,"MICROBIOLOGIA","2017-01-12 09:38:33",1,"MICROBIOLOGIA",0
122,72,"HORMONALES","2017-01-12 09:38:46",1,"HORMONALES",0
123,72,"ESPECIALES","2017-01-12 09:38:54",1,"ESPECIALES",0
128,73,"ENDOSCOPIAS","2018-04-03 11:35:51",1,"ENDOSC.",0
129,39,"ENDOSCOPIAS","2018-04-03 12:10:48",1,"ENDOSCOPIAS",0
130,36,"MANTENIMIENTOS Y OTROS","2018-11-07 10:56:29",1,"MANT/OTR.",0
131,36,"TERRENOS","2018-11-07 10:57:44",1,"TERRENOS",0
132,36,"OTROS","2018-11-07 11:02:12",1,"OT",0
134,74,"PROC. ENFERMERIA","2018-11-15 22:53:20",1,"PROC.ENF.",0
136,50,"ALQUILER","2018-12-04 10:00:41",1,"ALQUILER",0
137,37,"ALQUILER","2018-12-04 10:05:24",1,"ALQUILER",0
138,36,"SERVICIO AGUA","2018-12-05 09:28:00",1,"SERV. AGUA",0
139,36,"SERVICIO LUZ ELECTRICA","2018-12-05 09:29:03",1,"SERV. LUZ",0
140,36,"MERCED CONDUCTIVA","2018-12-05 09:29:57",1,"MERCED",0
141,36,"ARBITRIOS","2018-12-05 09:57:34",1,"ARBITRIOS",0
142,75,"HEMATOLOGIA","2019-02-12 08:15:36",1,"HEMATOLOGIA",0
143,75,"INMUNOLOGIA","2019-02-12 08:15:47",1,"INMUNOLOGIA",0
144,75,"BIOQUIMICA","2019-02-12 08:15:56",1,"BIOQUIMICA",0
145,75,"UROANALISIS","2019-02-12 08:16:11",1,"UROANALISIS",0
146,75,"HECES","2019-02-12 08:16:19",1,"HECES",0
147,75,"MICROBIOLOGIA","2019-02-12 08:16:29",1,"MICROBIOLOGIA",0
148,75,"HORMONALES","2019-02-12 08:16:39",1,"HORMONALES",0
149,75,"ESPECIALES","2019-02-12 08:16:47",1,"ESPECIALES",0
150,76,"OFTALMOLOGIA DR. GARCIA ROJAS","2019-11-07 09:07:52",1,"DR. GARCIA ROJAS",0
151,77,"CIRUGIA CABEZA Y CUELLO","2019-11-14 15:07:33",1,"CABEZA Y CUELLO",0
152,46,"OBSTETRICIA","2019-11-27 09:49:22",1,"OBSTETRICIA",0
