pemm_id;pemo_id;smop_id;pemm_fecharegistro;usua_id;;;
47;11;031010GESTDOC;16/07/2010 19:26;1;;;
48;11;031001GESTDOC;16/07/2010 19:26;1;;pemo_id;REFERENCES admin.perfilu_modulo (pemo_id)
94;11;031003GESTDOC;31/07/2010 19:38;1;;usua_id;REFERENCES admin.usuario (usua_id)
95;11;031002GESTDOC;31/07/2010 19:38;1;;smop_id;REFERENCES admin.sistema_modulo_opciones (smop_id)
108;11;031004GESTDOC;18/09/2010 09:32;1;;;
153;11;032204GESTDOC;5/10/2010 14:25;1;;;
154;11;032201GESTDOC;5/10/2010 14:25;1;;;
155;11;032202GESTDOC;5/10/2010 14:25;1;;;
156;11;032203GESTDOC;5/10/2010 14:25;1;;;
166;11;032205GESTDOC;7/10/2010 09:25;1;;;
201;22;032002GESTDOC;14/05/2013 15:00;1;;;
202;22;032005GESTDOC;14/05/2013 15:00;1;;;
203;22;032003GESTDOC;14/05/2013 15:00;1;;;
204;22;032004GESTDOC;14/05/2013 15:00;1;;;
205;22;032001GESTDOC;14/05/2013 15:00;1;;;
206;22;031004GESTDOC;14/05/2013 15:00;1;;;
207;22;031005GESTDOC;14/05/2013 15:00;1;;;
208;22;031001GESTDOC;14/05/2013 15:00;1;;;
209;22;031010GESTDOC;14/05/2013 15:00;1;;;
210;22;031003GESTDOC;14/05/2013 15:00;1;;;
211;22;031002GESTDOC;14/05/2013 15:00;1;;;
212;22;032205GESTDOC;14/05/2013 15:00;1;;;
213;22;032204GESTDOC;14/05/2013 15:00;1;;;
214;22;032201GESTDOC;14/05/2013 15:00;1;;;
215;22;032202GESTDOC;14/05/2013 15:00;1;;;
216;22;032203GESTDOC;14/05/2013 15:00;1;;;
244;11;032005GESTDOC;14/05/2013 15:41;1;;;
256;11;032002GESTDOC;16/05/2013 11:00;1;;;
280;11;032206GESTDOC;23/05/2013 09:52;1;;;
297;22;032206GESTDOC;24/05/2013 15:25;1;;;
300;22;032207GESTDOC;24/05/2013 15:25;1;;;
301;24;050504TURNOS;22/07/2013 18:33;1;;;
302;24;050502TURNOS;22/07/2013 18:33;1;;;
303;24;050501TURNOS;22/07/2013 18:33;1;;;
304;24;050101TURNOS;22/07/2013 18:33;1;;;
305;25;070101ADMISION;22/07/2013 18:33;1;;;
306;25;070201ADMISION;22/07/2013 18:33;1;;;
308;26;080101ECAUDACION;22/07/2013 18:34;1;;;
311;26;080508RECAUDACION;22/07/2013 18:34;1;;;
313;26;080502RECAUDACION;22/07/2013 18:34;1;;;
314;26;080201RECAUDACION;22/07/2013 18:34;1;;;
315;26;080601RECAUDACION;22/07/2013 18:34;1;;;
316;26;080800RECAUDACION;22/07/2013 18:34;1;;;
325;26;080802RECAUDACION;26/07/2013 20:43;1;;;
326;26;080804RECAUDACION;26/07/2013 20:43;1;;;
328;26;080803RECAUDACION;26/07/2013 20:43;1;;;
340;26;080805RECAUDACION;30/07/2013 16:07;1;;;
342;26;080807RECAUDACION;30/07/2013 16:07;1;;;
346;24;050401TURNOS;6/08/2013 18:53;1;;;
348;27;120101FARMACIA;20/08/2013 19:35;1;;;
349;27;120501FARMACIA;20/08/2013 19:35;1;;;
351;27;120508FARMACIA;20/08/2013 19:35;1;;;
352;27;120503FARMACIA;20/08/2013 19:35;1;;;
353;27;120502FARMACIA;20/08/2013 19:35;1;;;
354;27;120504FARMACIA;20/08/2013 19:35;1;;;
355;27;120202FARMACIA;20/08/2013 19:35;1;;;
356;27;120201FARMACIA;20/08/2013 19:35;1;;;
357;27;120601FARMACIA;20/08/2013 19:35;1;;;
358;27;120802FARMACIA;20/08/2013 19:35;1;;;
359;27;120801FARMACIA;20/08/2013 19:35;1;;;
360;28;080602RECAUDACION;2/09/2013 18:17;1;;;
371;27;120808FARMACIA;2/09/2013 18:18;1;;;
373;27;120804FARMACIA;2/09/2013 18:18;1;;;
375;27;120803FARMACIA;2/09/2013 18:18;1;;;
376;27;120805FARMACIA;2/09/2013 18:18;1;;;
377;27;120806FARMACIA;2/09/2013 18:18;1;;;
378;27;120807FARMACIA;2/09/2013 18:18;1;;;
380;28;080812RECAUDACION;5/09/2013 17:52;1;;;
381;29;120813FARMACIA;5/09/2013 17:57;1;;;
394;26;080806RECAUDACION;9/09/2013 18:00;1;;;
412;26;080808RECAUDACION;13/09/2013 12:29;1;;;
423;27;120810FARMACIA;3/10/2013 13:10;1;;;
429;27;120809FARMACIA;3/10/2013 13:10;1;;;
433;30;050401TURNOS;7/11/2013 16:56;1;;;
452;27;120811FARMACIA;10/11/2013 14:41;1;;;
453;27;120812FARMACIA;10/11/2013 14:41;1;;;
456;31;130101SERFIN;30/12/2013 10:52;1;;;
457;31;130501SERFIN;30/12/2013 10:52;1;;;
458;31;130505SERFIN;30/12/2013 10:52;1;;;
460;31;130508SERFIN;30/12/2013 10:52;1;;;
461;31;130509SERFIN;30/12/2013 10:52;1;;;
462;31;130502SERFIN;30/12/2013 10:52;1;;;
463;31;130503SERFIN;30/12/2013 10:52;1;;;
464;31;130504SERFIN;30/12/2013 10:52;1;;;
465;31;130202SERFIN;30/12/2013 10:52;1;;;
466;31;130203SERFIN;30/12/2013 10:52;1;;;
467;31;130302SERFIN;30/12/2013 10:52;1;;;
468;31;130301SERFIN;30/12/2013 10:52;1;;;
469;31;130601SERFIN;30/12/2013 10:52;1;;;
470;31;130801SERFIN;30/12/2013 10:52;1;;;
471;32;130101SERFIN;30/12/2013 10:53;1;;;
472;32;130301SERFIN;30/12/2013 10:53;1;;;
473;32;130601SERFIN;30/12/2013 10:53;1;;;
474;32;130801SERFIN;30/12/2013 10:53;1;;;
475;33;130801SERFIN;30/12/2013 10:53;1;;;
476;34;130202SERFIN;30/12/2013 10:55;1;;;
477;34;130203SERFIN;30/12/2013 10:55;1;;;
488;34;130801SERFIN;30/12/2013 10:55;1;;;
491;31;130506SERFIN;7/01/2014 07:21;1;;;
504;31;130803SERFIN;7/01/2014 07:21;1;;;
505;31;130802SERFIN;7/01/2014 07:21;1;;;
510;34;130803SERFIN;7/01/2014 07:22;1;;;
511;34;130802SERFIN;7/01/2014 07:22;1;;;
518;32;130802SERFIN;7/01/2014 07:22;1;;;
520;34;130508SERFIN;7/01/2014 09:01;1;;;
543;33;130803SERFIN;7/01/2014 10:13;1;;;
544;33;130802SERFIN;7/01/2014 10:13;1;;;
553;32;130803SERFIN;7/01/2014 12:53;1;;;
558;34;130509SERFIN;7/01/2014 12:53;1;;;
574;32;130807SERFIN;13/01/2014 07:12;1;;;
575;32;130806SERFIN;13/01/2014 07:12;1;;;
585;34;130808SERFIN;13/01/2014 07:12;1;;;
605;31;130808SERFIN;13/01/2014 07:13;1;;;
606;31;130805SERFIN;13/01/2014 07:13;1;;;
607;31;130807SERFIN;13/01/2014 07:13;1;;;
608;31;130806SERFIN;13/01/2014 07:13;1;;;
640;31;130811SERFIN;20/01/2014 16:46;1;;;
658;34;130811SERFIN;20/01/2014 16:47;1;;;
670;32;130811SERFIN;24/01/2014 14:55;1;;;
672;32;130808SERFIN;24/01/2014 14:55;1;;;
673;32;130805SERFIN;24/01/2014 14:55;1;;;
701;31;130810SERFIN;30/01/2014 19:43;1;;;
716;34;130805SERFIN;30/01/2014 19:44;1;;;
717;34;130807SERFIN;30/01/2014 19:44;1;;;
718;34;130806SERFIN;30/01/2014 19:44;1;;;
720;34;130810SERFIN;30/01/2014 19:44;1;;;
756;33;130812SERFIN;19/02/2014 15:16;1;;;
759;33;130811SERFIN;19/02/2014 15:16;1;;;
761;33;130808SERFIN;19/02/2014 15:16;1;;;
762;33;130805SERFIN;19/02/2014 15:16;1;;;
763;33;130807SERFIN;19/02/2014 15:16;1;;;
764;33;130806SERFIN;19/02/2014 15:16;1;;;
766;33;130810SERFIN;19/02/2014 15:16;1;;;
776;34;130812SERFIN;16/03/2014 18:09;1;;;
777;34;130813SERFIN;16/03/2014 18:09;1;;;
803;31;130812SERFIN;16/03/2014 18:09;1;;;
804;31;130813SERFIN;16/03/2014 18:09;1;;;
826;27;120813FARMACIA;2/04/2014 08:21;1;;;
848;26;080809RECAUDACION;23/04/2014 10:28;1;;;
857;37;120501FARMACIA;5/05/2014 16:58;1;;;
858;37;120507FARMACIA;5/05/2014 16:58;1;;;
859;37;120508FARMACIA;5/05/2014 16:58;1;;;
860;37;120503FARMACIA;5/05/2014 16:58;1;;;
861;37;120502FARMACIA;5/05/2014 16:58;1;;;
862;37;120505FARMACIA;5/05/2014 16:58;1;;;
863;37;120504FARMACIA;5/05/2014 16:58;1;;;
864;37;120202FARMACIA;5/05/2014 16:58;1;;;
865;37;120201FARMACIA;5/05/2014 16:58;1;;;
866;37;120601FARMACIA;5/05/2014 16:58;1;;;
867;37;120810FARMACIA;5/05/2014 16:58;1;;;
868;37;120813FARMACIA;5/05/2014 16:58;1;;;
869;37;120808FARMACIA;5/05/2014 16:58;1;;;
870;37;120802FARMACIA;5/05/2014 16:58;1;;;
871;37;120804FARMACIA;5/05/2014 16:58;1;;;
872;37;120801FARMACIA;5/05/2014 16:58;1;;;
873;37;120803FARMACIA;5/05/2014 16:58;1;;;
874;37;120809FARMACIA;5/05/2014 16:58;1;;;
875;37;120805FARMACIA;5/05/2014 16:58;1;;;
876;37;120811FARMACIA;5/05/2014 16:58;1;;;
877;37;120812FARMACIA;5/05/2014 16:58;1;;;
878;37;120806FARMACIA;5/05/2014 16:58;1;;;
879;37;120807FARMACIA;5/05/2014 16:58;1;;;
880;38;080507RECAUDACION;5/05/2014 16:58;1;;;
881;38;080506RECAUDACION;5/05/2014 16:58;1;;;
882;38;080508RECAUDACION;5/05/2014 16:58;1;;;
883;38;080501RECAUDACION;5/05/2014 16:58;1;;;
884;38;080502RECAUDACION;5/05/2014 16:58;1;;;
885;38;080201RECAUDACION;5/05/2014 16:58;1;;;
886;38;080601RECAUDACION;5/05/2014 16:58;1;;;
887;38;080602RECAUDACION;5/05/2014 16:58;1;;;
888;38;080812RECAUDACION;5/05/2014 16:58;1;;;
889;38;080809RECAUDACION;5/05/2014 16:58;1;;;
890;38;080802RECAUDACION;5/05/2014 16:58;1;;;
891;38;080800RECAUDACION;5/05/2014 16:58;1;;;
892;38;080804RECAUDACION;5/05/2014 16:58;1;;;
893;38;080805RECAUDACION;5/05/2014 16:58;1;;;
894;38;080806RECAUDACION;5/05/2014 16:58;1;;;
895;38;080803RECAUDACION;5/05/2014 16:58;1;;;
896;38;080807RECAUDACION;5/05/2014 16:58;1;;;
897;38;080808RECAUDACION;5/05/2014 16:58;1;;;
898;39;050504TURNOS;5/05/2014 16:58;1;;;
899;39;050502TURNOS;5/05/2014 16:58;1;;;
900;39;050501TURNOS;5/05/2014 16:58;1;;;
901;39;050401TURNOS;5/05/2014 16:58;1;;;
902;39;050101TURNOS;5/05/2014 16:58;1;;;
903;33;130302SERFIN;20/05/2014 16:12;1;;;
904;33;130813SERFIN;20/05/2014 16:12;1;;;
917;31;130102SERFIN;12/06/2014 14:30;1;;;
944;40;130802SERFIN;20/06/2014 13:10;1;;;
945;40;130813SERFIN;20/06/2014 14:13;1;;;
946;40;130812SERFIN;20/06/2014 14:13;1;;;
947;40;130803SERFIN;20/06/2014 14:13;1;;;
949;40;130811SERFIN;20/06/2014 14:13;1;;;
950;40;130804SERFIN;20/06/2014 14:13;1;;;
951;40;130808SERFIN;20/06/2014 14:13;1;;;
952;40;130805SERFIN;20/06/2014 14:13;1;;;
953;40;130807SERFIN;20/06/2014 14:13;1;;;
954;40;130806SERFIN;20/06/2014 14:13;1;;;
955;40;130801SERFIN;20/06/2014 14:13;1;;;
956;40;130810SERFIN;20/06/2014 14:13;1;;;
957;40;130302SERFIN;20/06/2014 15:19;1;;;
971;40;130202SERFIN;20/06/2014 15:21;1;;;
972;40;130203SERFIN;20/06/2014 15:21;1;;;
1023;28;080603RECAUDACION;9/07/2014 13:10;1;;;
1045;42;140101SISCORE;9/07/2014 16:31;1;;;
1048;42;140502SISCORE;9/07/2014 16:31;1;;;
1049;42;140512SISCORE;9/07/2014 16:31;1;;;
1050;42;140508SISCORE;9/07/2014 16:31;1;;;
1051;42;140511SISCORE;9/07/2014 16:31;1;;;
1052;42;140501SISCORE;9/07/2014 16:31;1;;;
1053;42;140506SISCORE;9/07/2014 16:31;1;;;
1054;42;140504SISCORE;9/07/2014 16:31;1;;;
1055;42;140509SISCORE;9/07/2014 16:31;1;;;
1056;42;140510SISCORE;9/07/2014 16:31;1;;;
1057;42;140507SISCORE;9/07/2014 16:31;1;;;
1058;42;150202CEMENTER;9/07/2014 16:31;1;;;
1059;42;140205SISCORE;9/07/2014 16:31;1;;;
1060;42;140513SISCORE;9/07/2014 16:31;1;;;
1061;42;140304SISCORE;9/07/2014 16:31;1;;;
1062;42;140303SISCORE;9/07/2014 16:31;1;;;
1063;42;140201SISCORE;9/07/2014 16:31;1;;;
1064;42;140601SISCORE;9/07/2014 16:31;1;;;
1065;42;140803SISCORE;9/07/2014 16:31;1;;;
1066;42;140802SISCORE;9/07/2014 16:31;1;;;
1067;42;140801SISCORE;9/07/2014 16:31;1;;;
1068;43;140101SISCORE;10/07/2014 08:57;1;;;
1072;43;140512SISCORE;10/07/2014 08:57;1;;;
1073;43;140508SISCORE;10/07/2014 08:57;1;;;
1074;43;140511SISCORE;10/07/2014 08:57;1;;;
1077;43;140504SISCORE;10/07/2014 08:57;1;;;
1081;43;150202CEMENTER;10/07/2014 08:57;1;;;
1082;43;140205SISCORE;10/07/2014 08:57;1;;;
1083;43;140513SISCORE;10/07/2014 08:57;1;;;
1084;43;140304SISCORE;10/07/2014 08:57;1;;;
1085;43;140303SISCORE;10/07/2014 08:57;1;;;
1086;43;140201SISCORE;10/07/2014 08:57;1;;;
1087;43;140601SISCORE;10/07/2014 08:57;1;;;
1088;43;140803SISCORE;10/07/2014 08:57;1;;;
1089;43;140802SISCORE;10/07/2014 08:57;1;;;
1090;43;140801SISCORE;10/07/2014 08:57;1;;;
1093;43;140503SISCORE;12/08/2014 08:24;1;;;
1121;43;140804SISCORE;14/08/2014 15:02;1;;;
1124;43;140805SISCORE;14/08/2014 15:02;1;;;
1133;43;140501SISCORE;14/08/2014 15:03;1;;;
1167;42;140514SISCORE;14/08/2014 15:08;1;;;
1169;42;140503SISCORE;14/08/2014 15:08;1;;;
1186;42;140804SISCORE;14/08/2014 15:08;1;;;
1189;42;140805SISCORE;14/08/2014 15:08;1;;;
1236;43;140808SISCORE;14/09/2014 18:16;1;;;
1239;43;140810SISCORE;14/09/2014 18:16;1;;;
1263;42;140808SISCORE;14/09/2014 18:16;1;;;
1266;42;140810SISCORE;14/09/2014 18:16;1;;;
1267;44;140804SISCORE;16/09/2014 13:03;1;;;
1268;44;140803SISCORE;16/09/2014 13:03;1;;;
1269;44;140808SISCORE;16/09/2014 13:03;1;;;
1310;43;140811SISCORE;9/10/2014 12:00;1;;;
1311;43;140809SISCORE;9/10/2014 12:00;1;;;
1339;42;140811SISCORE;9/10/2014 12:01;1;;;
1340;42;140809SISCORE;9/10/2014 12:01;1;;;
1342;48;043000GESTLEG;13/10/2014 13:05;1;;;
1344;49;140804SISCORE;22/10/2014 15:42;1;;;
1345;49;140803SISCORE;22/10/2014 15:42;1;;;
1346;49;140802SISCORE;22/10/2014 15:42;1;;;
1347;49;140808SISCORE;22/10/2014 15:42;1;;;
1348;49;140806SISCORE;22/10/2014 15:42;1;;;
1349;49;140805SISCORE;22/10/2014 15:42;1;;;
1350;49;140801SISCORE;22/10/2014 15:42;1;;;
1353;49;140809SISCORE;22/10/2014 15:42;1;;;
1372;43;140806SISCORE;23/10/2014 10:06;1;;;
1402;51;130813SERFIN;24/10/2014 10:57;1;;;
1403;51;130812SERFIN;24/10/2014 10:57;1;;;
1404;51;130803SERFIN;24/10/2014 10:57;1;;;
1405;51;130802SERFIN;24/10/2014 10:57;1;;;
1406;51;130811SERFIN;24/10/2014 10:57;1;;;
1407;51;130804SERFIN;24/10/2014 10:57;1;;;
1408;51;130808SERFIN;24/10/2014 10:57;1;;;
1409;51;130805SERFIN;24/10/2014 10:57;1;;;
1410;51;130807SERFIN;24/10/2014 10:57;1;;;
1411;51;130806SERFIN;24/10/2014 10:57;1;;;
1412;51;130801SERFIN;24/10/2014 10:57;1;;;
1413;51;130810SERFIN;24/10/2014 10:57;1;;;
1415;52;150302CEMENTER;4/11/2014 08:50;1;;;
1416;52;150305CEMENTER;4/11/2014 08:50;1;;;
1417;52;150303CEMENTER;4/11/2014 08:50;1;;;
1418;52;150304CEMENTER;4/11/2014 08:50;1;;;
1419;52;150100CEMENTER;4/11/2014 08:50;1;;;
1420;52;150401CEMENTER;4/11/2014 08:50;1;;;
1421;52;150402CEMENTER;4/11/2014 08:50;1;;;
1431;53;150100CEMENTER;4/11/2014 08:51;1;;;
1432;53;150401CEMENTER;4/11/2014 08:51;1;;;
1433;53;150402CEMENTER;4/11/2014 08:51;1;;;
1446;54;150201CEMENTER;5/11/2014 18:44;1;;;
1447;54;150202CEMENTER;5/11/2014 18:44;1;;;
1463;31;130602SERFIN;5/11/2014 18:45;1;;;
1465;31;130814SERFIN;5/11/2014 18:45;1;;;
1478;52;150201CEMENTER;5/11/2014 18:50;1;;;
1479;52;150202CEMENTER;5/11/2014 18:50;1;;;
1488;53;150201CEMENTER;5/11/2014 18:50;1;;;
1489;53;150202CEMENTER;5/11/2014 18:50;1;;;
1496;54;150401CEMENTER;6/11/2014 08:51;1;;;
1497;54;150402CEMENTER;6/11/2014 08:51;1;;;
1517;55;140205SISCORE;6/11/2014 08:58;1;;;
1518;55;140304SISCORE;6/11/2014 08:58;1;;;
1519;55;140303SISCORE;6/11/2014 08:58;1;;;
1520;55;140201SISCORE;6/11/2014 08:58;1;;;
1521;55;140804SISCORE;6/11/2014 08:58;1;;;
1522;55;140803SISCORE;6/11/2014 08:58;1;;;
1523;55;140802SISCORE;6/11/2014 08:58;1;;;
1524;55;140808SISCORE;6/11/2014 08:58;1;;;
1525;55;140806SISCORE;6/11/2014 08:58;1;;;
1526;55;140805SISCORE;6/11/2014 08:58;1;;;
1527;55;140801SISCORE;6/11/2014 08:58;1;;;
1528;55;140811SISCORE;6/11/2014 08:58;1;;;
1529;55;140810SISCORE;6/11/2014 08:58;1;;;
1530;55;140809SISCORE;6/11/2014 08:58;1;;;
1598;42;140806SISCORE;6/11/2014 09:01;1;;;
1637;34;130814SERFIN;6/11/2014 09:05;1;;;
1672;56;080812RECAUDACION;7/11/2014 10:33;1;;;
1673;56;080809RECAUDACION;7/11/2014 10:33;1;;;
1674;56;080802RECAUDACION;7/11/2014 10:33;1;;;
1675;56;080800RECAUDACION;7/11/2014 10:33;1;;;
1676;56;080804RECAUDACION;7/11/2014 10:33;1;;;
1677;56;080805RECAUDACION;7/11/2014 10:33;1;;;
1678;56;080806RECAUDACION;7/11/2014 10:33;1;;;
1679;56;080803RECAUDACION;7/11/2014 10:33;1;;;
1680;56;080807RECAUDACION;7/11/2014 10:33;1;;;
1681;56;080808RECAUDACION;7/11/2014 10:33;1;;;
1736;57;130814SERFIN;21/11/2014 10:23;1;;;
1737;57;130813SERFIN;21/11/2014 10:23;1;;;
1738;57;130812SERFIN;21/11/2014 10:23;1;;;
1739;57;130803SERFIN;21/11/2014 10:23;1;;;
1740;57;130802SERFIN;21/11/2014 10:23;1;;;
1741;57;130811SERFIN;21/11/2014 10:23;1;;;
1743;57;130808SERFIN;21/11/2014 10:23;1;;;
1744;57;130805SERFIN;21/11/2014 10:23;1;;;
1745;57;130807SERFIN;21/11/2014 10:23;1;;;
1746;57;130806SERFIN;21/11/2014 10:23;1;;;
1747;57;130810SERFIN;21/11/2014 10:23;1;;;
1763;28;080101ECAUDACION;29/11/2014 09:16;1;;;
1764;28;080507RECAUDACION;29/11/2014 09:16;1;;;
1765;28;080506RECAUDACION;29/11/2014 09:16;1;;;
1766;28;080508RECAUDACION;29/11/2014 09:16;1;;;
1767;28;080501RECAUDACION;29/11/2014 09:16;1;;;
1768;28;080502RECAUDACION;29/11/2014 09:16;1;;;
1769;28;080201RECAUDACION;29/11/2014 09:16;1;;;
1770;28;080601RECAUDACION;29/11/2014 09:16;1;;;
1774;28;080809RECAUDACION;29/11/2014 09:16;1;;;
1775;28;080802RECAUDACION;29/11/2014 09:16;1;;;
1776;28;080800RECAUDACION;29/11/2014 09:16;1;;;
1777;28;080804RECAUDACION;29/11/2014 09:16;1;;;
1778;28;080805RECAUDACION;29/11/2014 09:16;1;;;
1779;28;080806RECAUDACION;29/11/2014 09:16;1;;;
1780;28;080803RECAUDACION;29/11/2014 09:16;1;;;
1781;28;080807RECAUDACION;29/11/2014 09:16;1;;;
1782;28;080808RECAUDACION;29/11/2014 09:16;1;;;
1839;53;150403CEMENTER;10/01/2015 15:32;1;;;
1850;52;150403CEMENTER;10/01/2015 15:33;1;;;
1859;52;150404CEMENTER;21/01/2015 11:41;1;;;
1879;53;150404CEMENTER;21/01/2015 11:41;1;;;
1897;33;130203SERFIN;22/01/2015 10:32;1;;;
1914;44;140806SISCORE;23/01/2015 08:39;1;;;
1915;44;140805SISCORE;23/01/2015 08:39;1;;;
1916;59;031005GESTDOC;28/01/2015 15:35;1;;;
1917;59;032201GESTDOC;28/01/2015 15:35;1;;;
1950;52;150405CEMENTER;20/03/2015 09:54;1;;;
1953;52;150406CEMENTER;20/03/2015 09:54;1;;;
1960;53;150405CEMENTER;20/03/2015 09:54;1;;;
1963;53;150406CEMENTER;20/03/2015 09:54;1;;;
1967;54;150404CEMENTER;20/03/2015 09:55;1;;;
1968;54;150405CEMENTER;20/03/2015 09:55;1;;;
1971;54;150406CEMENTER;20/03/2015 09:55;1;;;
1972;54;150403CEMENTER;20/03/2015 09:55;1;;;
1975;44;140802SISCORE;6/05/2015 12:53;1;;;
1979;44;140801SISCORE;6/05/2015 12:53;1;;;
1980;44;140810SISCORE;6/05/2015 12:53;1;;;
1981;44;140809SISCORE;6/05/2015 12:53;1;;;
1985;40;130814SERFIN;6/05/2015 12:53;1;;;
1998;61;150404CEMENTER;18/05/2015 14:46;1;;;
1999;61;150405CEMENTER;18/05/2015 14:46;1;;;
2000;61;150401CEMENTER;18/05/2015 14:46;1;;;
2001;61;150402CEMENTER;18/05/2015 14:46;1;;;
2002;61;150406CEMENTER;18/05/2015 14:46;1;;;
2003;61;150403CEMENTER;18/05/2015 14:46;1;;;
2060;65;140205SISCORE;15/06/2015 09:52;1;;;
2061;65;140804SISCORE;15/06/2015 09:52;1;;;
2062;65;140803SISCORE;15/06/2015 09:52;1;;;
2063;65;140808SISCORE;15/06/2015 09:52;1;;;
2067;65;140802SISCORE;6/07/2015 16:28;1;;;
2069;65;140810SISCORE;6/07/2015 16:28;1;;;
2070;66;140804SISCORE;9/07/2015 13:07;1;;;
2071;66;140803SISCORE;9/07/2015 13:07;1;;;
2072;66;140802SISCORE;9/07/2015 13:07;1;;;
2073;66;140808SISCORE;9/07/2015 13:07;1;;;
2074;66;140806SISCORE;9/07/2015 13:07;1;;;
2075;66;140805SISCORE;9/07/2015 13:07;1;;;
2076;66;140801SISCORE;9/07/2015 13:07;1;;;
2077;66;140811SISCORE;9/07/2015 13:07;1;;;
2078;66;140810SISCORE;9/07/2015 13:07;1;;;
2079;66;140809SISCORE;9/07/2015 13:07;1;;;
2080;46;042005GESTLEG;15/08/2015 15:30;1;;;
2081;46;042001GESTLEG;15/08/2015 15:30;1;;;
2082;46;042003GESTLEG;15/08/2015 15:30;1;;;
2083;46;042004GESTLEG;15/08/2015 15:30;1;;;
2084;46;042017GESTLEG;15/08/2015 15:30;1;;;
2085;46;042002GESTLEG;15/08/2015 15:30;1;;;
2086;46;042013GESTLEG;15/08/2015 15:30;1;;;
2087;46;042014GESTLEG;15/08/2015 15:30;1;;;
2088;46;042012GESTLEG;15/08/2015 15:30;1;;;
2089;46;042010GESTLEG;15/08/2015 15:30;1;;;
2090;46;042009GESTLEG;15/08/2015 15:30;1;;;
2091;46;042006GESTLEG;15/08/2015 15:30;1;;;
2092;46;042007GESTLEG;15/08/2015 15:30;1;;;
2093;46;042015GESTLEG;15/08/2015 15:30;1;;;
2094;46;042011GESTLEG;15/08/2015 15:30;1;;;
2095;46;041010GESTLEG;15/08/2015 15:30;1;;;
2096;46;041002GESTLEG;15/08/2015 15:30;1;;;
2097;46;041005GESTLEG;15/08/2015 15:30;1;;;
2098;46;041004GESTLEG;15/08/2015 15:30;1;;;
2099;46;041012GESTLEG;15/08/2015 15:30;1;;;
2100;46;041001GESTLEG;15/08/2015 15:30;1;;;
2101;46;043000GESTLEG;15/08/2015 15:30;1;;;
2102;46;043002GESTLEG;15/08/2015 15:30;1;;;
2103;47;042005GESTLEG;15/08/2015 15:31;1;;;
2104;47;042001GESTLEG;15/08/2015 15:31;1;;;
2105;47;042003GESTLEG;15/08/2015 15:31;1;;;
2106;47;042004GESTLEG;15/08/2015 15:31;1;;;
2107;47;042017GESTLEG;15/08/2015 15:31;1;;;
2108;47;042002GESTLEG;15/08/2015 15:31;1;;;
2109;47;042013GESTLEG;15/08/2015 15:31;1;;;
2110;47;042014GESTLEG;15/08/2015 15:31;1;;;
2111;47;042012GESTLEG;15/08/2015 15:31;1;;;
2112;47;042009GESTLEG;15/08/2015 15:31;1;;;
2113;47;042006GESTLEG;15/08/2015 15:31;1;;;
2114;47;042007GESTLEG;15/08/2015 15:31;1;;;
2115;47;042015GESTLEG;15/08/2015 15:31;1;;;
2116;47;042011GESTLEG;15/08/2015 15:31;1;;;
2117;47;041010GESTLEG;15/08/2015 15:31;1;;;
2118;47;041002GESTLEG;15/08/2015 15:31;1;;;
2119;47;041005GESTLEG;15/08/2015 15:31;1;;;
2120;47;041004GESTLEG;15/08/2015 15:31;1;;;
2121;47;041012GESTLEG;15/08/2015 15:31;1;;;
2122;47;041001GESTLEG;15/08/2015 15:31;1;;;
2123;47;043000GESTLEG;15/08/2015 15:31;1;;;
2124;47;043002GESTLEG;15/08/2015 15:31;1;;;
2125;67;170107SIGLO;17/08/2015 18:13;1;;;
2126;67;170109SIGLO;17/08/2015 18:13;1;;;
2127;67;170110SIGLO;17/08/2015 18:13;1;;;
2128;67;170108SIGLO;17/08/2015 18:13;1;;;
2129;67;170615SIGLO;17/08/2015 18:13;1;;;
2130;67;170609SIGLO;17/08/2015 18:13;1;;;
2131;67;170611SIGLO;17/08/2015 18:13;1;;;
2132;67;170608SIGLO;17/08/2015 18:13;1;;;
2133;67;170612SIGLO;17/08/2015 18:13;1;;;
2134;67;170610SIGLO;17/08/2015 18:13;1;;;
2135;67;170601SIGLO;17/08/2015 18:13;1;;;
2136;67;170602SIGLO;17/08/2015 18:13;1;;;
2137;67;170603SIGLO;17/08/2015 18:13;1;;;
2138;67;170604SIGLO;17/08/2015 18:13;1;;;
2139;67;170619SIGLO;17/08/2015 18:13;1;;;
2140;67;170618SIGLO;17/08/2015 18:13;1;;;
2141;67;170617SIGLO;17/08/2015 18:13;1;;;
2142;67;170620SIGLO;17/08/2015 18:13;1;;;
2143;67;170616SIGLO;17/08/2015 18:13;1;;;
2144;67;170613SIGLO;17/08/2015 18:13;1;;;
2145;67;170605SIGLO;17/08/2015 18:13;1;;;
2146;68;160102SISCOPP;17/08/2015 18:14;1;;;
2147;68;160101SISCOPP;17/08/2015 18:14;1;;;
2148;68;160404SISCOPP;17/08/2015 18:14;1;;;
2149;68;160401SISCOPP;17/08/2015 18:14;1;;;
2150;68;160409SISCOPP;17/08/2015 18:14;1;;;
2151;68;160406SISCOPP;17/08/2015 18:14;1;;;
2152;68;160405SISCOPP;17/08/2015 18:14;1;;;
2153;68;160407SISCOPP;17/08/2015 18:14;1;;;
2154;68;160403SISCOPP;17/08/2015 18:14;1;;;
2155;68;160402SISCOPP;17/08/2015 18:14;1;;;
2156;68;160408SISCOPP;17/08/2015 18:14;1;;;
2157;68;160301SISCOPP;17/08/2015 18:14;1;;;
2158;69;170303SIGLO;17/08/2015 18:14;1;;;
2159;69;170304SIGLO;17/08/2015 18:14;1;;;
2160;69;170301SIGLO;17/08/2015 18:14;1;;;
2161;69;170302SIGLO;17/08/2015 18:14;1;;;
2162;69;170305SIGLO;17/08/2015 18:14;1;;;
2163;69;170306SIGLO;17/08/2015 18:14;1;;;
2164;69;170309SIGLO;17/08/2015 18:14;1;;;
2165;69;170316SIGLO;17/08/2015 18:14;1;;;
2166;69;170315SIGLO;17/08/2015 18:14;1;;;
2167;69;170312SIGLO;17/08/2015 18:14;1;;;
2168;69;170307SIGLO;17/08/2015 18:14;1;;;
2169;69;170310SIGLO;17/08/2015 18:14;1;;;
2170;69;170321SIGLO;17/08/2015 18:14;1;;;
2171;69;170318SIGLO;17/08/2015 18:14;1;;;
2172;69;170319SIGLO;17/08/2015 18:14;1;;;
2173;69;170320SIGLO;17/08/2015 18:14;1;;;
2174;69;170323SIGLO;17/08/2015 18:14;1;;;
2175;69;170322SIGLO;17/08/2015 18:14;1;;;
2176;69;170311SIGLO;17/08/2015 18:14;1;;;
2177;69;170308SIGLO;17/08/2015 18:14;1;;;
2178;69;170314SIGLO;17/08/2015 18:14;1;;;
2179;69;170107SIGLO;17/08/2015 18:14;1;;;
2180;69;170109SIGLO;17/08/2015 18:14;1;;;
2181;69;170105SIGLO;17/08/2015 18:14;1;;;
2182;69;170106SIGLO;17/08/2015 18:14;1;;;
2183;69;170110SIGLO;17/08/2015 18:14;1;;;
2184;69;170108SIGLO;17/08/2015 18:14;1;;;
2185;69;170101SIGLO;17/08/2015 18:14;1;;;
2186;69;170501SIGLO;17/08/2015 18:14;1;;;
2187;69;170615SIGLO;17/08/2015 18:14;1;;;
2188;69;170609SIGLO;17/08/2015 18:14;1;;;
2189;69;170611SIGLO;17/08/2015 18:14;1;;;
2190;69;170608SIGLO;17/08/2015 18:14;1;;;
2191;69;170612SIGLO;17/08/2015 18:14;1;;;
2192;69;170610SIGLO;17/08/2015 18:14;1;;;
2193;69;170601SIGLO;17/08/2015 18:14;1;;;
2194;69;170602SIGLO;17/08/2015 18:14;1;;;
2195;69;170603SIGLO;17/08/2015 18:14;1;;;
2196;69;170604SIGLO;17/08/2015 18:14;1;;;
2197;69;170619SIGLO;17/08/2015 18:14;1;;;
2198;69;170618SIGLO;17/08/2015 18:14;1;;;
2199;69;170617SIGLO;17/08/2015 18:14;1;;;
2200;69;170620SIGLO;17/08/2015 18:14;1;;;
2201;69;170616SIGLO;17/08/2015 18:14;1;;;
2202;69;170613SIGLO;17/08/2015 18:14;1;;;
2203;69;170605SIGLO;17/08/2015 18:14;1;;;
2209;11;031011GESTDOC;17/08/2015 20:12;1;;;
2227;22;031011GESTDOC;17/08/2015 20:13;1;;;
2237;67;170303SIGLO;8/09/2015 12:08;1;;;
2260;67;170111SIGLO;14/09/2015 17:03;1;;;
2303;69;170111SIGLO;14/09/2015 17:03;1;;;
2329;71;011002ESCALAFON;16/09/2015 10:18;1;;;
2330;71;011001ESCALAFON;16/09/2015 10:18;1;;;
2331;71;011003ESCALAFON;16/09/2015 10:18;1;;;
2332;71;011004ESCALAFON;16/09/2015 10:18;1;;;
2333;71;012001ESCALAFON;16/09/2015 10:18;1;;;
2334;71;010102ESCALAFON;16/09/2015 10:18;1;;;
2335;71;010101ESCALAFON;16/09/2015 10:18;1;;;
2357;11;032207GESTDOC;16/09/2015 15:00;1;;;
2359;67;170321SIGLO;18/09/2015 15:20;1;;;
2360;67;170320SIGLO;18/09/2015 15:20;1;;;
2385;48;043002GESTLEG;7/10/2015 16:26;1;;;
2392;73;170618SIGLO;19/10/2015 14:18;1;;;
2395;74;170111SIGLO;19/10/2015 14:19;1;;;
2397;75;140802SISCORE;22/10/2015 08:41;1;;;
2398;75;140809SISCORE;22/10/2015 08:41;1;;;
2407;11;032208GESTDOC;26/10/2015 12:02;1;;;
2473;69;170621SIGLO;26/10/2015 12:02;1;;;
2499;67;170621SIGLO;26/10/2015 12:02;1;;;
2532;74;170621SIGLO;26/10/2015 12:03;1;;;
2555;42;140812SISCORE;9/12/2015 14:47;1;;;
2580;43;140812SISCORE;9/12/2015 14:47;1;;;
2595;55;140812SISCORE;9/12/2015 14:47;1;;;
2612;78;170107SIGLO;17/12/2015 16:13;1;;;
2613;78;170105SIGLO;17/12/2015 16:13;1;;;
2614;78;170106SIGLO;17/12/2015 16:13;1;;;
2615;78;170110SIGLO;17/12/2015 16:13;1;;;
2616;78;170601SIGLO;17/12/2015 16:13;1;;;
2617;65;140513SISCORE;22/12/2015 15:03;1;;;
2656;43;140401SISCORE;30/12/2015 06:44;1;;;
2682;42;140401SISCORE;30/12/2015 06:45;1;;;
2722;80;130814SERFIN;5/02/2016 14:25;1;;;
2723;80;130813SERFIN;5/02/2016 14:25;1;;;
2724;80;130812SERFIN;5/02/2016 14:25;1;;;
2725;80;130803SERFIN;5/02/2016 14:25;1;;;
2726;80;130802SERFIN;5/02/2016 14:25;1;;;
2727;80;130811SERFIN;5/02/2016 14:25;1;;;
2729;80;130808SERFIN;5/02/2016 14:25;1;;;
2730;80;130805SERFIN;5/02/2016 14:25;1;;;
2731;80;130807SERFIN;5/02/2016 14:25;1;;;
2732;80;130806SERFIN;5/02/2016 14:25;1;;;
2733;80;130810SERFIN;5/02/2016 14:25;1;;;
2744;73;170110SIGLO;10/02/2016 10:04;1;;;
2799;69;170401SIGLO;9/03/2016 08:20;1;;;
2827;81;140304SISCORE;11/03/2016 07:47;1;;;
2828;81;140303SISCORE;11/03/2016 07:47;1;;;
2829;81;140201SISCORE;11/03/2016 07:47;1;;;
2830;81;140806SISCORE;11/03/2016 07:47;1;;;
2831;81;140805SISCORE;11/03/2016 07:47;1;;;
2842;82;120813FARMACIA;14/03/2016 08:24;1;;;
2843;82;120808FARMACIA;14/03/2016 08:24;1;;;
2844;82;120801FARMACIA;14/03/2016 08:24;1;;;
2845;82;120803FARMACIA;14/03/2016 08:24;1;;;
2846;82;120809FARMACIA;14/03/2016 08:24;1;;;
2847;82;120806FARMACIA;14/03/2016 08:24;1;;;
2848;82;120807FARMACIA;14/03/2016 08:24;1;;;
2859;54;150407CEMENTER;5/04/2016 09:24;1;;;
2870;53;150407CEMENTER;5/04/2016 09:24;1;;;
2876;83;130803SERFIN;21/04/2016 12:14;1;;;
2877;83;130802SERFIN;21/04/2016 12:14;1;;;
2878;83;130811SERFIN;21/04/2016 12:14;1;;;
2880;83;130808SERFIN;21/04/2016 12:14;1;;;
2881;83;130801SERFIN;21/04/2016 12:14;1;;;
2882;83;130810SERFIN;21/04/2016 12:14;1;;;
2883;84;170105SIGLO;23/06/2016 08:09;1;;;
2884;84;170106SIGLO;23/06/2016 08:09;1;;;
2885;84;170601SIGLO;23/06/2016 08:09;1;;;
2886;84;170602SIGLO;23/06/2016 08:09;1;;;
2887;84;170603SIGLO;23/06/2016 08:09;1;;;
2888;84;170604SIGLO;23/06/2016 08:09;1;;;
2889;84;170621SIGLO;23/06/2016 08:09;1;;;
2890;84;170605SIGLO;23/06/2016 08:09;1;;;
2899;53;150408CEMENTER;29/06/2016 20:07;1;;;
2911;52;150407CEMENTER;29/06/2016 20:08;1;;;
2914;52;150408CEMENTER;29/06/2016 20:08;1;;;
2924;54;150408CEMENTER;29/06/2016 20:08;1;;;
2938;85;180501SISPAT;1/07/2016 07:45;1;;;
2939;85;180502SISPAT;1/07/2016 07:45;1;;;
2940;85;180303SISPAT;1/07/2016 07:45;1;;;
2941;85;180302SISPAT;1/07/2016 07:45;1;;;
2942;85;180301SISPAT;1/07/2016 07:45;1;;;
2943;85;180304SISPAT;1/07/2016 07:45;1;;;
2944;85;180201SISPAT;1/07/2016 07:45;1;;;
2945;85;180102SISPAT;1/07/2016 07:45;1;;;
2946;85;180101SISPAT;1/07/2016 07:45;1;;;
2947;85;180103SISPAT;1/07/2016 07:45;1;;;
2948;85;180709SISPAT;1/07/2016 07:45;1;;;
2949;85;180701SISPAT;1/07/2016 07:45;1;;;
2950;85;180707SISPAT;1/07/2016 07:45;1;;;
2951;85;180708SISPAT;1/07/2016 07:45;1;;;
2952;85;1807061SISPAT;1/07/2016 07:45;1;;;
2953;85;180703SISPAT;1/07/2016 07:45;1;;;
2954;85;180702SISPAT;1/07/2016 07:45;1;;;
2955;85;180704SISPAT;1/07/2016 07:45;1;;;
2956;85;180705SISPAT;1/07/2016 07:45;1;;;
2957;86;180501SISPAT;1/07/2016 07:46;1;;;
2958;86;180502SISPAT;1/07/2016 07:46;1;;;
2959;86;180602SISPAT;1/07/2016 07:46;1;;;
2960;86;180601SISPAT;1/07/2016 07:46;1;;;
2961;86;180303SISPAT;1/07/2016 07:46;1;;;
2962;86;180302SISPAT;1/07/2016 07:46;1;;;
2963;86;180301SISPAT;1/07/2016 07:46;1;;;
2964;86;180304SISPAT;1/07/2016 07:46;1;;;
2965;86;180201SISPAT;1/07/2016 07:46;1;;;
2966;86;180401SISPAT;1/07/2016 07:46;1;;;
2967;86;180102SISPAT;1/07/2016 07:46;1;;;
2968;86;180101SISPAT;1/07/2016 07:46;1;;;
2969;86;180103SISPAT;1/07/2016 07:46;1;;;
2970;86;180709SISPAT;1/07/2016 07:46;1;;;
2971;86;180701SISPAT;1/07/2016 07:46;1;;;
2972;86;180707SISPAT;1/07/2016 07:46;1;;;
2973;86;180708SISPAT;1/07/2016 07:46;1;;;
2974;86;1807061SISPAT;1/07/2016 07:46;1;;;
2975;86;180703SISPAT;1/07/2016 07:46;1;;;
2976;86;180702SISPAT;1/07/2016 07:46;1;;;
2977;86;180704SISPAT;1/07/2016 07:46;1;;;
2978;86;180705SISPAT;1/07/2016 07:46;1;;;
2979;87;180709SISPAT;1/07/2016 07:48;1;;;
2980;87;180701SISPAT;1/07/2016 07:48;1;;;
2981;87;180707SISPAT;1/07/2016 07:48;1;;;
2982;87;180708SISPAT;1/07/2016 07:48;1;;;
2983;87;1807061SISPAT;1/07/2016 07:48;1;;;
2984;87;180703SISPAT;1/07/2016 07:48;1;;;
2985;87;180702SISPAT;1/07/2016 07:48;1;;;
2986;87;180704SISPAT;1/07/2016 07:48;1;;;
2987;87;180705SISPAT;1/07/2016 07:48;1;;;
3020;88;140802SISCORE;14/07/2016 14:52;1;;;
3021;88;140805SISCORE;14/07/2016 14:52;1;;;
3022;88;140810SISCORE;14/07/2016 14:52;1;;;
3037;66;140812SISCORE;8/08/2016 08:10;1;;;
3061;46;041007GESTLEG;26/08/2016 08:39;1;;;
3063;46;041006GESTLEG;26/08/2016 08:39;1;;;
3066;46;041003GESTLEG;26/08/2016 08:39;1;;;
3073;56;080810RECAUDACION;14/10/2016 08:37;1;;;
3094;28;080810RECAUDACION;14/10/2016 08:37;1;;;
3109;26;080812RECAUDACION;19/10/2016 12:38;1;;;
3110;26;080810RECAUDACION;19/10/2016 12:38;1;;;
3120;29;120101FARMACIA;2/11/2016 07:39;1;;;
3121;29;120501FARMACIA;2/11/2016 07:39;1;;;
3123;29;120508FARMACIA;2/11/2016 07:39;1;;;
3124;29;120503FARMACIA;2/11/2016 07:39;1;;;
3125;29;120502FARMACIA;2/11/2016 07:39;1;;;
3126;29;120505FARMACIA;2/11/2016 07:39;1;;;
3127;29;120504FARMACIA;2/11/2016 07:39;1;;;
3128;29;120202FARMACIA;2/11/2016 07:39;1;;;
3129;29;120201FARMACIA;2/11/2016 07:39;1;;;
3130;29;120601FARMACIA;2/11/2016 07:39;1;;;
3131;29;120810FARMACIA;2/11/2016 07:39;1;;;
3133;29;120808FARMACIA;2/11/2016 07:39;1;;;
3134;29;120802FARMACIA;2/11/2016 07:39;1;;;
3135;29;120804FARMACIA;2/11/2016 07:39;1;;;
3136;29;120801FARMACIA;2/11/2016 07:39;1;;;
3137;29;120803FARMACIA;2/11/2016 07:39;1;;;
3138;29;120809FARMACIA;2/11/2016 07:39;1;;;
3139;29;120805FARMACIA;2/11/2016 07:39;1;;;
3140;29;120811FARMACIA;2/11/2016 07:39;1;;;
3141;29;120812FARMACIA;2/11/2016 07:39;1;;;
3142;29;120806FARMACIA;2/11/2016 07:39;1;;;
3143;29;120807FARMACIA;2/11/2016 07:39;1;;;
3150;27;120505FARMACIA;2/11/2016 07:39;1;;;
3248;22;032208GESTDOC;9/11/2016 07:36;1;;;
3256;90;090102GESTCNE;9/11/2016 18:32;1;;;
3257;90;090701GESTCNE;9/11/2016 18:32;1;;;
3258;90;090702GESTCNE;9/11/2016 18:32;1;;;
3259;91;090501GESTCNE;9/11/2016 18:34;1;;;
3260;91;090101GESTCNE;9/11/2016 18:34;1;;;
3261;91;090103GESTCNE;9/11/2016 18:34;1;;;
3262;91;090102GESTCNE;9/11/2016 18:34;1;;;
3263;91;090701GESTCNE;9/11/2016 18:34;1;;;
3264;91;090702GESTCNE;9/11/2016 18:34;1;;;
3265;92;170303SIGLO;9/11/2016 18:34;1;;;
3266;92;170304SIGLO;9/11/2016 18:34;1;;;
3267;92;170301SIGLO;9/11/2016 18:34;1;;;
3268;92;170302SIGLO;9/11/2016 18:34;1;;;
3269;92;170305SIGLO;9/11/2016 18:34;1;;;
3270;92;170306SIGLO;9/11/2016 18:34;1;;;
3271;92;170309SIGLO;9/11/2016 18:34;1;;;
3272;92;170316SIGLO;9/11/2016 18:34;1;;;
3273;92;170315SIGLO;9/11/2016 18:34;1;;;
3274;92;170312SIGLO;9/11/2016 18:34;1;;;
3275;92;170307SIGLO;9/11/2016 18:34;1;;;
3276;92;170310SIGLO;9/11/2016 18:34;1;;;
3277;92;170321SIGLO;9/11/2016 18:34;1;;;
3278;92;170318SIGLO;9/11/2016 18:34;1;;;
3279;92;170319SIGLO;9/11/2016 18:34;1;;;
3280;92;170320SIGLO;9/11/2016 18:34;1;;;
3281;92;170323SIGLO;9/11/2016 18:34;1;;;
3282;92;170322SIGLO;9/11/2016 18:34;1;;;
3283;92;170311SIGLO;9/11/2016 18:34;1;;;
3284;92;170308SIGLO;9/11/2016 18:34;1;;;
3285;92;170314SIGLO;9/11/2016 18:34;1;;;
3286;92;170401SIGLO;9/11/2016 18:34;1;;;
3287;92;170111SIGLO;9/11/2016 18:34;1;;;
3288;92;170107SIGLO;9/11/2016 18:34;1;;;
3289;92;170109SIGLO;9/11/2016 18:34;1;;;
3290;92;170105SIGLO;9/11/2016 18:34;1;;;
3291;92;170106SIGLO;9/11/2016 18:34;1;;;
3292;92;170110SIGLO;9/11/2016 18:34;1;;;
3293;92;170108SIGLO;9/11/2016 18:34;1;;;
3294;92;170101SIGLO;9/11/2016 18:34;1;;;
3295;92;170501SIGLO;9/11/2016 18:34;1;;;
3296;92;170615SIGLO;9/11/2016 18:34;1;;;
3297;92;170609SIGLO;9/11/2016 18:34;1;;;
3298;92;170611SIGLO;9/11/2016 18:34;1;;;
3299;92;170608SIGLO;9/11/2016 18:34;1;;;
3300;92;170612SIGLO;9/11/2016 18:34;1;;;
3301;92;170610SIGLO;9/11/2016 18:34;1;;;
3302;92;170601SIGLO;9/11/2016 18:34;1;;;
3303;92;170602SIGLO;9/11/2016 18:34;1;;;
3304;92;170603SIGLO;9/11/2016 18:34;1;;;
3305;92;170604SIGLO;9/11/2016 18:34;1;;;
3306;92;170619SIGLO;9/11/2016 18:34;1;;;
3307;92;170618SIGLO;9/11/2016 18:34;1;;;
3308;92;170621SIGLO;9/11/2016 18:34;1;;;
3309;92;170617SIGLO;9/11/2016 18:34;1;;;
3310;92;170620SIGLO;9/11/2016 18:34;1;;;
3311;92;170616SIGLO;9/11/2016 18:34;1;;;
3312;92;170613SIGLO;9/11/2016 18:34;1;;;
3313;92;170605SIGLO;9/11/2016 18:34;1;;;
3327;93;090101GESTCNE;16/11/2016 08:42;1;;;
3328;44;140201SISCORE;24/11/2016 08:25;1;;;
3356;47;041003GESTLEG;10/01/2017 08:49;1;;;
3364;95;031005GESTDOC;10/02/2017 10:44;1;;;
3366;73;170619SIGLO;14/02/2017 11:50;1;;;
3368;73;170617SIGLO;14/02/2017 11:50;1;;;
3369;73;170616SIGLO;14/02/2017 11:50;1;;;
3375;81;140810SISCORE;21/07/2017 10:55;1;;;
3377;73;170609SIGLO;19/09/2017 11:32;1;;;
3384;93;090102GESTCNE;20/11/2017 07:49;1;;;
3385;87;180102SISPAT;15/02/2018 12:19;1;;;
3386;87;180101SISPAT;15/02/2018 12:19;1;;;
3387;87;180103SISPAT;15/02/2018 12:19;1;;;
3405;81;140809SISCORE;14/03/2018 07:43;1;;;
3406;96;140205SISCORE;16/03/2018 11:13;1;;;
3407;96;140804SISCORE;16/03/2018 11:13;1;;;
3408;96;140803SISCORE;16/03/2018 11:13;1;;;
3409;96;140812SISCORE;16/03/2018 11:13;1;;;
3439;97;130202SERFIN;2/04/2018 07:39;1;;;
3440;97;130302SERFIN;2/04/2018 07:39;1;;;
3441;97;130802SERFIN;2/04/2018 07:39;1;;;
3442;97;130808SERFIN;2/04/2018 07:39;1;;;
3443;97;130810SERFIN;2/04/2018 07:39;1;;;
3499;46;042016GESTLEG;1/06/2018 10:08;1;;;
3533;47;041007GESTLEG;1/06/2018 10:11;1;;;
3535;47;041006GESTLEG;1/06/2018 10:11;1;;;
3571;98;140802SISCORE;6/06/2018 08:47;1;;;
3572;98;140809SISCORE;6/06/2018 08:47;1;;;
3576;81;140802SISCORE;12/07/2018 13:13;1;;;
3596;33;130202SERFIN;2/08/2018 12:16;1;;;
3611;99;190101ALQUILER;5/10/2018 10:26;1;;;
3612;99;190102ALQUILER;5/10/2018 10:26;1;;;
3613;99;190103ALQUILER;5/10/2018 10:26;1;;;
3614;99;190404ALQUILER;5/10/2018 10:26;1;;;
3615;99;190401ALQUILER;5/10/2018 10:26;1;;;
3616;99;190402ALQUILER;5/10/2018 10:26;1;;;
3617;99;190201ALQUILER;5/10/2018 10:26;1;;;
3618;99;190403ALQUILER;5/10/2018 10:26;1;;;
3619;99;190705ALQUILER;5/10/2018 10:26;1;;;
3620;99;190704ALQUILER;5/10/2018 10:26;1;;;
3621;99;190701ALQUILER;5/10/2018 10:26;1;;;
3658;80;130202SERFIN;18/10/2018 10:29;1;;;
3677;99;190405ALQUILER;22/11/2018 11:38;1;;;
3684;99;190702ALQUILER;22/11/2018 11:38;1;;;
3699;101;190702ALQUILER;23/11/2018 11:32;1;;;
3700;102;190103ALQUILER;28/11/2018 13:24;1;;;
3711;99;190706ALQUILER;5/12/2018 06:37;1;;;
3712;99;190708ALQUILER;5/12/2018 06:37;1;;;
3728;99;190709ALQUILER;7/12/2018 10:12;1;;;
3735;101;190704ALQUILER;31/12/2018 09:34;1;;;
3786;99;190710ALQUILER;10/01/2019 11:53;1;;;
3791;93;090103GESTCNE;15/01/2019 09:43;1;;;
3793;101;190706ALQUILER;16/01/2019 14:20;1;;;
3794;101;190709ALQUILER;16/01/2019 14:20;1;;;
3795;101;190705ALQUILER;16/01/2019 14:20;1;;;
3816;99;190711ALQUILER;23/01/2019 11:57;1;;;
3842;85;180305SISPAT;6/02/2019 08:41;1;;;
3847;85;180104SISPAT;6/02/2019 08:41;1;;;
3865;86;180305SISPAT;6/02/2019 08:41;1;;;
3871;86;180104SISPAT;6/02/2019 08:41;1;;;
3887;84;170619SIGLO;7/02/2019 10:03;1;;;
3888;84;170618SIGLO;7/02/2019 10:03;1;;;
3890;84;170617SIGLO;7/02/2019 10:03;1;;;
3891;84;170620SIGLO;7/02/2019 10:03;1;;;
3892;84;170616SIGLO;7/02/2019 10:03;1;;;
3894;103;140101SISCORE;7/02/2019 10:05;1;;;
3895;103;140503SISCORE;7/02/2019 10:05;1;;;
3896;103;140201SISCORE;7/02/2019 10:05;1;;;
3897;103;140601SISCORE;7/02/2019 10:05;1;;;
3898;104;080506RECAUDACION;14/02/2019 14:08;1;;;
3899;104;080501RECAUDACION;14/02/2019 14:08;1;;;
3904;101;190710ALQUILER;15/02/2019 14:10;1;;;
3906;105;170307SIGLO;27/02/2019 14:00;1;;;
3907;106;170303SIGLO;18/03/2019 11:47;1;;;
3940;46;041009GESTLEG;29/05/2019 08:52;1;;;
3941;46;041008GESTLEG;29/05/2019 08:52;1;;;
3986;107;190705ALQUILER;13/06/2019 09:51;1;;;
3987;107;190704ALQUILER;13/06/2019 09:51;1;;;
3988;107;190702ALQUILER;13/06/2019 09:51;1;;;
3989;108;120803FARMACIA;13/06/2019 09:52;1;;;
3990;109;080802RECAUDACION;13/06/2019 09:52;1;;;
3991;109;080804RECAUDACION;13/06/2019 09:52;1;;;
3992;109;080805RECAUDACION;13/06/2019 09:52;1;;;
3993;109;080806RECAUDACION;13/06/2019 09:52;1;;;
3994;109;080807RECAUDACION;13/06/2019 09:52;1;;;
3995;109;080808RECAUDACION;13/06/2019 09:52;1;;;
3996;110;140802SISCORE;13/06/2019 09:53;1;;;
3997;110;140810SISCORE;13/06/2019 09:53;1;;;
3998;110;140809SISCORE;13/06/2019 09:53;1;;;
3999;111;130803SERFIN;13/06/2019 09:54;1;;;
4000;111;130802SERFIN;13/06/2019 09:54;1;;;
4001;111;130801SERFIN;13/06/2019 09:54;1;;;
4018;32;130810SERFIN;27/06/2019 11:11;1;;;
4019;112;140809SISCORE;23/07/2019 09:13;1;;;
4020;112;140804SISCORE;8/08/2019 14:32;1;;;
4021;112;140803SISCORE;8/08/2019 14:32;1;;;
4058;32;130814SERFIN;12/08/2019 11:33;1;;;
4059;32;130813SERFIN;12/08/2019 11:33;1;;;
4060;32;130812SERFIN;12/08/2019 11:33;1;;;
4073;84;170612SIGLO;17/10/2019 11:48;1;;;
4085;115;190709ALQUILER;22/10/2019 08:52;1;;;
4086;115;190704ALQUILER;22/10/2019 08:52;1;;;
4087;115;190702ALQUILER;22/10/2019 08:52;1;;;
4213;115;190706ALQUILER;11/02/2020 11:45;1;;;
4218;108;120806FARMACIA;4/03/2020 13:11;1;;;
4219;108;120813FARMACIA;4/03/2020 13:12;1;;;
4224;108;120809FARMACIA;5/03/2020 12:07;1;;;
4226;109;080812RECAUDACION;17/06/2020 09:44;1;;;
