sist_id;sist_descripcion;sist_breve;sist_fecharegistro;sist_activo;usua_id;sist_image_on;sist_image_off
01ESCALAFO;Admistración de Personal;ESCALAFON      ;9/03/2006 11:31;1;1;mod_personal_on.jpg;mod_personal_off.jpg
03GESTDOC;Gestión Documentaria;GESTDOC        ;25/05/2010 17:43;1;1;mod_tramite_on.jpg;mod_tramite_off.jpg
04GESTLEG;Gestión de Expedientes Legales;GESTLEG        ;25/05/2010 17:43;1;1;mod_gestleg_on.jpg;mod_gestleg_off.jpg
05TURNOS;Gestión de Turnos;TURNOS         ;13/07/2013 22:18;1;1;mod_gestion_turno_on.jpg;mod_gestion_turno_off.jpg
07ADMISION;Admisión de Historias Clínicas;ADMISION       ;13/07/2013 22:18;1;1;mod_admision_on.jpg;mod_admision_off.jpg
08RECAUDAC;Control de Recaudación;RECAUDACION    ;13/07/2013 22:18;1;1;mod_recuadacion_cm_on.jpg;mod_recuadacion_cm_off.jpg
09GESTCNE;Gestión de Cuadro de Necesidedes;CNECESIDADES   ;13/07/2013 22:18;1;1;mod_cnecesidades_on.jpg;mod_cnecesidades_off.jpg
12FARMACIA;Botica;FARMACIA       ;13/07/2013 22:18;1;1;mod_farmacia_on.jpg;mod_farmacia_off.jpg
13SERFIN;Servicio Funerario;SERFIN         ;13/07/2013 22:18;1;1;mod_SERFIN_on.jpg;mod_SERFIN_off.jpg
14SISCORE;Control de Recaudación-Tesorería;RECAUDACION TE ;13/07/2013 22:18;1;1;mod_recuadacion_te_on.jpg;mod_recuadacion_te_off.jpg
15CEMENTER;Administración de Cementerio;CEMENTERIO     ;13/07/2013 22:18;1;1;mod_cementerio_on.jpg;mod_cementerio_off.jpg
16SISCOPP;Control Presupuestal;SISCOPP        ;13/07/2013 22:18;1;1;mod_contppto_on.jpg;mod_contppto_off.jpg
17SIGLO;Logistica y Almacén;SIGLO          ;13/07/2013 22:18;1;1;mod_logistica_on.jpg;mod_logistica_off.jpg
18SISPAT;Control Patrimonial;SISPAT         ;13/07/2013 22:18;1;1;mod_sispat_on.jpg;mod_sispat_off.jpg
19ALQUILER;Alquiler de Bienes Inmueblres;ALQUILER       ;13/07/2013 22:18;1;1;mod_alquileres_on.jpg;mod_alquileres_off.jpg
99ADMIN;Admin;ADMIN          ;9/03/2006 11:31;1;1;mod_admin_on.jpg;mod_admin_off.jpg
;;;;;;;
;usua_id;REFERENCES admin.usuario (usua_id);;1 --> Sistema Activo;;;
;;;;0 --> Sistema Desactivado;;;
